(module 009155004003016 (layer F.Cu) (tedit 614D794E)
  (descr 009155004003016-3)
  (tags Connector)
  (attr smd)
  (fp_text reference J** (at 0 0.137) (layer F.SilkS)
    (effects (font (size 1.27 1.27) (thickness 0.254)))
  )
  (fp_text value 009155004003016 (at 0 0.137) (layer F.SilkS) hide
    (effects (font (size 1.27 1.27) (thickness 0.254)))
  )
  (fp_line (start 5 -4.4) (end 5 3.65) (layer F.SilkS) (width 0.1))
  (fp_line (start 0.9 -4.4) (end 5 -4.4) (layer F.SilkS) (width 0.1))
  (fp_line (start -5 -4.4) (end -5 3.65) (layer F.SilkS) (width 0.1))
  (fp_line (start -3.3 -4.4) (end -5 -4.4) (layer F.SilkS) (width 0.1))
  (fp_line (start -6 6.15) (end -6 -5.875) (layer F.CrtYd) (width 0.1))
  (fp_line (start 6 6.15) (end -6 6.15) (layer F.CrtYd) (width 0.1))
  (fp_line (start 6 -5.875) (end 6 6.15) (layer F.CrtYd) (width 0.1))
  (fp_line (start -6 -5.875) (end 6 -5.875) (layer F.CrtYd) (width 0.1))
  (fp_line (start -5 3.65) (end -5 -4.4) (layer F.Fab) (width 0.2))
  (fp_line (start 5 3.65) (end -5 3.65) (layer F.Fab) (width 0.2))
  (fp_line (start 5 -4.4) (end 5 3.65) (layer F.Fab) (width 0.2))
  (fp_line (start -5 -4.4) (end 5 -4.4) (layer F.Fab) (width 0.2))
  (fp_text user %R (at 0 0.137) (layer F.Fab)
    (effects (font (size 1.27 1.27) (thickness 0.254)))
  )
  (pad 1 smd rect (at -3.75 4.4) (size 1.5 1.5) (layers F.Cu F.Paste F.Mask))
  (pad 2 smd rect (at -1.25 4.4) (size 1.5 1.5) (layers F.Cu F.Paste F.Mask))
  (pad 3 smd rect (at 1.25 4.4) (size 1.5 1.5) (layers F.Cu F.Paste F.Mask))
  (pad 4 smd rect (at 3.75 4.4) (size 1.5 1.5) (layers F.Cu F.Paste F.Mask))
  (pad MP1 smd rect (at -1.25 -2.9) (size 3.6 3.95) (layers F.Cu F.Paste F.Mask))
  (model AVX-00-9155-004-003-016.STEP
    (offset (xyz 0 -3.5 0))
    (scale (xyz 1 1 1))
    (rotate (xyz -90 0 0))
  )
)
