(module CMI-9653S-SMT (layer F.Cu) (tedit 619F51B1)
  (fp_text reference %R (at -0.254 -0.254) (layer F.SilkS)
    (effects (font (size 1 1) (thickness 0.15)))
  )
  (fp_text value %R (at -0.25 -0.25) (layer Eco1.User)
    (effects (font (size 1 1) (thickness 0.15)))
  )
  (fp_line (start -2.65 5.05) (end -1.5 5.05) (layer F.CrtYd) (width 0.05))
  (fp_line (start -5.05 2.65) (end -2.65 5.05) (layer F.CrtYd) (width 0.05))
  (fp_line (start -4.8 2.4) (end -2.4 4.8) (layer F.SilkS) (width 0.127))
  (fp_line (start -4.8 2.4) (end -2.4 4.8) (layer F.Fab) (width 0.127))
  (fp_line (start 1.5 -5.75) (end -1.5 -5.75) (layer F.CrtYd) (width 0.05))
  (fp_line (start -1.5 -5.05) (end -1.5 -5.75) (layer F.CrtYd) (width 0.05))
  (fp_line (start -1.5 -5.05) (end -5.05 -5.05) (layer F.CrtYd) (width 0.05))
  (fp_line (start 1.5 -5.05) (end 1.5 -5.75) (layer F.CrtYd) (width 0.05))
  (fp_line (start 5.05 -5.05) (end 1.5 -5.05) (layer F.CrtYd) (width 0.05))
  (fp_line (start 5.05 5.05) (end 5.05 -5.05) (layer F.CrtYd) (width 0.05))
  (fp_line (start 1.5 5.05) (end 5.05 5.05) (layer F.CrtYd) (width 0.05))
  (fp_line (start 1.5 5.75) (end 1.5 5.05) (layer F.CrtYd) (width 0.05))
  (fp_line (start -1.5 5.75) (end -1.5 5.05) (layer F.CrtYd) (width 0.05))
  (fp_line (start -1.5 5.75) (end 1.5 5.75) (layer F.CrtYd) (width 0.05))
  (fp_line (start 1.6 4.8) (end 4.8 4.8) (layer F.SilkS) (width 0.127))
  (fp_line (start 4.8 -4.8) (end 4.8 4.8) (layer F.Fab) (width 0.127))
  (fp_line (start -5.05 -5.05) (end -5.05 2.65) (layer F.CrtYd) (width 0.05))
  (fp_line (start -4.8 -4.8) (end -1.6 -4.8) (layer F.SilkS) (width 0.127))
  (fp_line (start 4.8 -4.8) (end 1.6 -4.8) (layer F.SilkS) (width 0.127))
  (fp_line (start -2.4 4.8) (end -1.6 4.8) (layer F.SilkS) (width 0.127))
  (fp_line (start -4.8 2.4) (end -4.8 -4.8) (layer F.SilkS) (width 0.127))
  (fp_line (start 4.8 -4.8) (end 4.8 4.8) (layer F.SilkS) (width 0.127))
  (fp_line (start -4.8 -4.8) (end 4.8 -4.8) (layer F.Fab) (width 0.127))
  (fp_line (start -4.8 2.4) (end -4.8 -4.8) (layer F.Fab) (width 0.127))
  (fp_line (start 4.8 4.8) (end -2.4 4.8) (layer F.Fab) (width 0.127))
  (fp_text user + (at 2.25 -5.5) (layer F.SilkS)
    (effects (font (size 1 1) (thickness 0.15)))
  )
  (fp_text user - (at 2.56008 5.25816) (layer F.SilkS)
    (effects (font (size 1 1) (thickness 0.15)))
  )
  (pad N smd rect (at 0 4) (size 2.5 3) (layers F.Cu F.Paste F.Mask))
  (pad P smd rect (at 0 -4) (size 2.5 3) (layers F.Cu F.Paste F.Mask))
  (model CMI-9653S-SMT-TR.step
    (offset (xyz 0 0 4.8))
    (scale (xyz 1 1 1))
    (rotate (xyz -90 0 90))
  )
)
