(module IPEX_20641-034E (layer F.Cu) (tedit 614D73AA)
  (fp_text reference REF** (at -2.448 -1.7064) (layer F.SilkS)
    (effects (font (size 0.64 0.64) (thickness 0.15)))
  )
  (fp_text value IPEX_20641-034E (at 1.496 2.1936) (layer F.Fab)
    (effects (font (size 0.64 0.64) (thickness 0.15)))
  )
  (fp_poly (pts (xy 3.1 -0.92) (xy 3.3 -0.92) (xy 3.3 -0.5) (xy 3.1 -0.5)) (layer F.Paste) (width 0.01))
  (fp_poly (pts (xy 3.1 0.5) (xy 3.3 0.5) (xy 3.3 0.92) (xy 3.1 0.92)) (layer F.Paste) (width 0.01))
  (fp_poly (pts (xy 2.7 -0.92) (xy 2.9 -0.92) (xy 2.9 -0.5) (xy 2.7 -0.5)) (layer F.Paste) (width 0.01))
  (fp_poly (pts (xy 2.7 0.5) (xy 2.9 0.5) (xy 2.9 0.92) (xy 2.7 0.92)) (layer F.Paste) (width 0.01))
  (fp_poly (pts (xy 3.9 -0.58) (xy 4.1 -0.58) (xy 4.1 -0.18) (xy 3.9 -0.18)) (layer F.Paste) (width 0.01))
  (fp_poly (pts (xy -4.1 0.18) (xy -3.9 0.18) (xy -3.9 0.58) (xy -4.1 0.58)) (layer F.Paste) (width 0.01))
  (fp_poly (pts (xy -4.1 -0.58) (xy -3.9 -0.58) (xy -3.9 -0.18) (xy -4.1 -0.18)) (layer F.Paste) (width 0.01))
  (fp_poly (pts (xy 3.9 0.18) (xy 4.1 0.18) (xy 4.1 0.58) (xy 3.9 0.58)) (layer F.Paste) (width 0.01))
  (fp_poly (pts (xy -0.5 -0.92) (xy -0.3 -0.92) (xy -0.3 -0.5) (xy -0.5 -0.5)) (layer F.Paste) (width 0.01))
  (fp_poly (pts (xy -4.69 1) (xy -4.69 -1) (xy -4.29 -1) (xy -4.29 1)) (layer Dwgs.User) (width 0.0001))
  (fp_poly (pts (xy 4.29 1) (xy 4.29 -1) (xy 4.69 -1) (xy 4.69 1)) (layer Dwgs.User) (width 0.0001))
  (fp_poly (pts (xy 3.885 -0.15) (xy 4.185 -0.15) (xy 4.185 0.15) (xy 3.885 0.15)) (layer Dwgs.User) (width 0.0001))
  (fp_poly (pts (xy 3.885 -0.15) (xy 4.185 -0.15) (xy 4.185 0.15) (xy 3.885 0.15)) (layer Dwgs.User) (width 0.0001))
  (fp_poly (pts (xy -4.185 -0.15) (xy -3.885 -0.15) (xy -3.885 0.15) (xy -4.185 0.15)) (layer Dwgs.User) (width 0.0001))
  (fp_poly (pts (xy 2.3 0.5) (xy 2.5 0.5) (xy 2.5 0.92) (xy 2.3 0.92)) (layer F.Paste) (width 0.01))
  (fp_poly (pts (xy 1.9 0.5) (xy 2.1 0.5) (xy 2.1 0.92) (xy 1.9 0.92)) (layer F.Paste) (width 0.01))
  (fp_poly (pts (xy 1.5 0.5) (xy 1.7 0.5) (xy 1.7 0.92) (xy 1.5 0.92)) (layer F.Paste) (width 0.01))
  (fp_poly (pts (xy 1.1 0.5) (xy 1.3 0.5) (xy 1.3 0.92) (xy 1.1 0.92)) (layer F.Paste) (width 0.01))
  (fp_poly (pts (xy 0.7 0.5) (xy 0.9 0.5) (xy 0.9 0.92) (xy 0.7 0.92)) (layer F.Paste) (width 0.01))
  (fp_poly (pts (xy 0.3 0.5) (xy 0.5 0.5) (xy 0.5 0.92) (xy 0.3 0.92)) (layer F.Paste) (width 0.01))
  (fp_poly (pts (xy -0.1 0.5) (xy 0.1 0.5) (xy 0.1 0.92) (xy -0.1 0.92)) (layer F.Paste) (width 0.01))
  (fp_poly (pts (xy -0.5 0.5) (xy -0.3 0.5) (xy -0.3 0.92) (xy -0.5 0.92)) (layer F.Paste) (width 0.01))
  (fp_poly (pts (xy -0.9 0.5) (xy -0.7 0.5) (xy -0.7 0.92) (xy -0.9 0.92)) (layer F.Paste) (width 0.01))
  (fp_poly (pts (xy -1.3 0.5) (xy -1.1 0.5) (xy -1.1 0.92) (xy -1.3 0.92)) (layer F.Paste) (width 0.01))
  (fp_poly (pts (xy -1.7 0.5) (xy -1.5 0.5) (xy -1.5 0.92) (xy -1.7 0.92)) (layer F.Paste) (width 0.01))
  (fp_poly (pts (xy -2.1 0.5) (xy -1.9 0.5) (xy -1.9 0.92) (xy -2.1 0.92)) (layer F.Paste) (width 0.01))
  (fp_poly (pts (xy -2.5 0.5) (xy -2.3 0.5) (xy -2.3 0.92) (xy -2.5 0.92)) (layer F.Paste) (width 0.01))
  (fp_poly (pts (xy -2.9 0.5) (xy -2.7 0.5) (xy -2.7 0.92) (xy -2.9 0.92)) (layer F.Paste) (width 0.01))
  (fp_poly (pts (xy -3.3 0.5) (xy -3.1 0.5) (xy -3.1 0.92) (xy -3.3 0.92)) (layer F.Paste) (width 0.01))
  (fp_poly (pts (xy 2.3 -0.92) (xy 2.5 -0.92) (xy 2.5 -0.5) (xy 2.3 -0.5)) (layer F.Paste) (width 0.01))
  (fp_poly (pts (xy 1.9 -0.92) (xy 2.1 -0.92) (xy 2.1 -0.5) (xy 1.9 -0.5)) (layer F.Paste) (width 0.01))
  (fp_poly (pts (xy 1.5 -0.92) (xy 1.7 -0.92) (xy 1.7 -0.5) (xy 1.5 -0.5)) (layer F.Paste) (width 0.01))
  (fp_poly (pts (xy 1.1 -0.92) (xy 1.3 -0.92) (xy 1.3 -0.5) (xy 1.1 -0.5)) (layer F.Paste) (width 0.01))
  (fp_poly (pts (xy 0.7 -0.92) (xy 0.9 -0.92) (xy 0.9 -0.5) (xy 0.7 -0.5)) (layer F.Paste) (width 0.01))
  (fp_poly (pts (xy 0.3 -0.92) (xy 0.5 -0.92) (xy 0.5 -0.5) (xy 0.3 -0.5)) (layer F.Paste) (width 0.01))
  (fp_poly (pts (xy -0.1 -0.92) (xy 0.1 -0.92) (xy 0.1 -0.5) (xy -0.1 -0.5)) (layer F.Paste) (width 0.01))
  (fp_poly (pts (xy -0.5 -0.92) (xy -0.3 -0.92) (xy -0.3 -0.5) (xy -0.5 -0.5)) (layer F.Paste) (width 0.01))
  (fp_poly (pts (xy -0.9 -0.92) (xy -0.7 -0.92) (xy -0.7 -0.5) (xy -0.9 -0.5)) (layer F.Paste) (width 0.01))
  (fp_poly (pts (xy -1.3 -0.92) (xy -1.1 -0.92) (xy -1.1 -0.5) (xy -1.3 -0.5)) (layer F.Paste) (width 0.01))
  (fp_poly (pts (xy -1.7 -0.92) (xy -1.5 -0.92) (xy -1.5 -0.5) (xy -1.7 -0.5)) (layer F.Paste) (width 0.01))
  (fp_poly (pts (xy -2.1 -0.92) (xy -1.9 -0.92) (xy -1.9 -0.5) (xy -2.1 -0.5)) (layer F.Paste) (width 0.01))
  (fp_poly (pts (xy -2.5 -0.92) (xy -2.3 -0.92) (xy -2.3 -0.5) (xy -2.5 -0.5)) (layer F.Paste) (width 0.01))
  (fp_poly (pts (xy -2.9 -0.92) (xy -2.7 -0.92) (xy -2.7 -0.5) (xy -2.9 -0.5)) (layer F.Paste) (width 0.01))
  (fp_poly (pts (xy -3.3 -0.92) (xy -3.1 -0.92) (xy -3.1 -0.5) (xy -3.3 -0.5)) (layer F.Paste) (width 0.01))
  (fp_poly (pts (xy -4.69 1) (xy -4.69 -1) (xy -4.29 -1) (xy -4.29 1)) (layer Dwgs.User) (width 0.0001))
  (fp_poly (pts (xy 4.29 1) (xy 4.29 -1) (xy 4.69 -1) (xy 4.69 1)) (layer Dwgs.User) (width 0.0001))
  (fp_poly (pts (xy 3.885 -0.15) (xy 4.185 -0.15) (xy 4.185 0.15) (xy 3.885 0.15)) (layer Dwgs.User) (width 0.0001))
  (fp_poly (pts (xy 3.885 -0.15) (xy 4.185 -0.15) (xy 4.185 0.15) (xy 3.885 0.15)) (layer Dwgs.User) (width 0.0001))
  (fp_poly (pts (xy -4.185 -0.15) (xy -3.885 -0.15) (xy -3.885 0.15) (xy -4.185 0.15)) (layer Dwgs.User) (width 0.0001))
  (fp_circle (center -3.2 1.5) (end -3.1 1.5) (layer F.Fab) (width 0.2))
  (fp_circle (center -3.2 1.5) (end -3.1 1.5) (layer F.SilkS) (width 0.2))
  (fp_line (start -4.51 1.21) (end -4.51 -1.21) (layer F.CrtYd) (width 0.05))
  (fp_line (start 4.51 1.21) (end -4.51 1.21) (layer F.CrtYd) (width 0.05))
  (fp_line (start 4.51 -1.21) (end 4.51 1.21) (layer F.CrtYd) (width 0.05))
  (fp_line (start -4.51 -1.21) (end 4.51 -1.21) (layer F.CrtYd) (width 0.05))
  (fp_line (start -4.26 0.62) (end -4.26 -0.62) (layer F.Fab) (width 0.127))
  (fp_line (start 4.26 0.62) (end -4.26 0.62) (layer F.Fab) (width 0.127))
  (fp_line (start 4.26 -0.62) (end 4.26 0.62) (layer F.Fab) (width 0.127))
  (fp_line (start -4.26 -0.62) (end 4.26 -0.62) (layer F.Fab) (width 0.127))
  (pad 2 smd rect (at -3.2 -0.71) (size 0.25 0.5) (layers F.Cu F.Mask))
  (pad 1 smd rect (at -3.2 0.71) (size 0.25 0.5) (layers F.Cu F.Mask))
  (pad S2 smd rect (at -4.035 -0.425) (size 0.3 0.55) (layers F.Cu F.Mask))
  (pad S1 smd rect (at -4.035 0.425) (size 0.3 0.55) (layers F.Cu F.Mask))
  (pad S3 smd rect (at 4.035 -0.425) (size 0.3 0.55) (layers F.Cu F.Mask))
  (pad S4 smd rect (at 4.035 0.425) (size 0.3 0.55) (layers F.Cu F.Mask))
  (pad 4 smd rect (at -2.8 -0.71) (size 0.25 0.5) (layers F.Cu F.Mask))
  (pad 6 smd rect (at -2.4 -0.71) (size 0.25 0.5) (layers F.Cu F.Mask))
  (pad 8 smd rect (at -2 -0.71) (size 0.25 0.5) (layers F.Cu F.Mask))
  (pad 10 smd rect (at -1.6 -0.71) (size 0.25 0.5) (layers F.Cu F.Mask))
  (pad 12 smd rect (at -1.2 -0.71) (size 0.25 0.5) (layers F.Cu F.Mask))
  (pad 14 smd rect (at -0.8 -0.71) (size 0.25 0.5) (layers F.Cu F.Mask))
  (pad 16 smd rect (at -0.4 -0.71) (size 0.25 0.5) (layers F.Cu F.Mask))
  (pad 18 smd rect (at 0 -0.71) (size 0.25 0.5) (layers F.Cu F.Mask))
  (pad 20 smd rect (at 0.4 -0.71) (size 0.25 0.5) (layers F.Cu F.Mask))
  (pad 22 smd rect (at 0.8 -0.71) (size 0.25 0.5) (layers F.Cu F.Mask))
  (pad 24 smd rect (at 1.2 -0.71) (size 0.25 0.5) (layers F.Cu F.Mask))
  (pad 26 smd rect (at 1.6 -0.71) (size 0.25 0.5) (layers F.Cu F.Mask))
  (pad 28 smd rect (at 2 -0.71) (size 0.25 0.5) (layers F.Cu F.Mask))
  (pad 30 smd rect (at 2.4 -0.71) (size 0.25 0.5) (layers F.Cu F.Mask))
  (pad 3 smd rect (at -2.8 0.71) (size 0.25 0.5) (layers F.Cu F.Mask))
  (pad 5 smd rect (at -2.4 0.71) (size 0.25 0.5) (layers F.Cu F.Mask))
  (pad 7 smd rect (at -2 0.71) (size 0.25 0.5) (layers F.Cu F.Mask))
  (pad 9 smd rect (at -1.6 0.71) (size 0.25 0.5) (layers F.Cu F.Mask))
  (pad 11 smd rect (at -1.2 0.71) (size 0.25 0.5) (layers F.Cu F.Mask))
  (pad 13 smd rect (at -0.8 0.71) (size 0.25 0.5) (layers F.Cu F.Mask))
  (pad 15 smd rect (at -0.4 0.71) (size 0.25 0.5) (layers F.Cu F.Mask))
  (pad 17 smd rect (at 0 0.71) (size 0.25 0.5) (layers F.Cu F.Mask))
  (pad 19 smd rect (at 0.4 0.71) (size 0.25 0.5) (layers F.Cu F.Mask))
  (pad 21 smd rect (at 0.8 0.71) (size 0.25 0.5) (layers F.Cu F.Mask))
  (pad 23 smd rect (at 1.2 0.71) (size 0.25 0.5) (layers F.Cu F.Mask))
  (pad 25 smd rect (at 1.6 0.71) (size 0.25 0.5) (layers F.Cu F.Mask))
  (pad 27 smd rect (at 2 0.71) (size 0.25 0.5) (layers F.Cu F.Mask))
  (pad 29 smd rect (at 2.4 0.71) (size 0.25 0.5) (layers F.Cu F.Mask))
  (pad 31 smd rect (at 2.8 0.71) (size 0.25 0.5) (layers F.Cu F.Mask))
  (pad 32 smd rect (at 2.8 -0.71) (size 0.25 0.5) (layers F.Cu F.Mask))
  (pad 33 smd rect (at 3.2 0.71) (size 0.25 0.5) (layers F.Cu F.Mask))
  (pad 34 smd rect (at 3.2 -0.71) (size 0.25 0.5) (layers F.Cu F.Mask))
  (model ${KISYS3DMOD}/I-PEX_20641-034E.STEP
    (offset (xyz 0.6 0 0))
    (scale (xyz 1 1 1))
    (rotate (xyz -90 0 180))
  )
)
