(module NFSW757H-V1 (layer F.Cu) (tedit 61F7B665)
  (descr NFSW757G)
  (tags LED)
  (attr smd)
  (fp_text reference LED** (at -0.29315 -0.06529) (layer F.SilkS)
    (effects (font (size 0.7 0.7) (thickness 0.1)))
  )
  (fp_text value NFSW757G (at -0.29315 -0.06529) (layer F.SilkS) hide
    (effects (font (size 0.7 0.7) (thickness 0.1)))
  )
  (fp_poly (pts (xy 1.6 1) (xy 1 1) (xy 1 -1) (xy 1.6 -1)) (layer F.Paste) (width 0))
  (fp_poly (pts (xy -0.1 1) (xy -1.6 1) (xy -1.6 -1) (xy -0.1 -1)) (layer F.Paste) (width 0))
  (fp_line (start 2.1 -1.6) (end 2.1 1.6) (layer F.CrtYd) (width 0.01))
  (fp_line (start -2.1 1.6) (end 2.1 1.6) (layer F.CrtYd) (width 0.01))
  (fp_line (start -2.1 -1.6) (end -2.1 1.6) (layer F.CrtYd) (width 0.01))
  (fp_line (start -2.1 -1.6) (end 2.1 -1.6) (layer F.CrtYd) (width 0.01))
  (fp_line (start -1.5 -1.5) (end 1.5 -1.5) (layer F.Fab) (width 0.01))
  (fp_line (start 1.5 -1.5) (end 1.5 1.5) (layer F.Fab) (width 0.01))
  (fp_line (start 1.5 1.5) (end -1.5 1.5) (layer F.Fab) (width 0.01))
  (fp_line (start -1.5 1.5) (end -1.5 -1.5) (layer F.Fab) (width 0.01))
  (fp_text user %R (at -0.29315 -0.06529) (layer F.Fab)
    (effects (font (size 0.7 0.7) (thickness 0.1)))
  )
  (fp_line (start 1.27 1.27) (end -0.254 1.27) (layer B.SilkS) (width 0.12))
  (fp_poly (pts (xy 0 1.524) (xy -0.3175 1.27) (xy 0 1.016)) (layer B.SilkS) (width 0.1))
  (pad 1 smd rect (at 1.11 0) (size 0.58 2.3) (layers F.Cu F.Mask))
  (pad 2 smd rect (at -0.635 0) (size 1.53 2.3) (layers F.Cu F.Mask))
  (pad 2 smd rect (at -1.7 0) (size 0.6 3.15) (layers F.Cu F.Paste F.Mask)
    (solder_paste_margin -0.1))
  (pad 1 smd rect (at 1.7 0) (size 0.6 3.15) (layers F.Cu F.Paste F.Mask)
    (solder_paste_margin -0.1))
  (model NFSW757H-V1.stp
    (at (xyz 0 0 0))
    (scale (xyz 1 1 1))
    (rotate (xyz 0 0 0))
  )
)
