(module SI1012R-T1-GE3 (layer F.Cu) (tedit 61679FDD)
  (descr SC-75A)
  (tags "MOSFET (N-Channel)")
  (attr smd)
  (fp_text reference Q** (at 0 0) (layer F.SilkS) hide
    (effects (font (size 0.5 0.5) (thickness 0.1)))
  )
  (fp_text value Q** (at 0 0) (layer Eco1.User) hide
    (effects (font (size 0.5 0.5) (thickness 0.1)))
  )
  (fp_line (start -1.225 -0.975) (end 0.625 -0.975) (layer F.SilkS) (width 0.1))
  (fp_line (start -0.38 -0.29) (end 0.12 -0.79) (layer F.Fab) (width 0.1))
  (fp_line (start -0.38 0.79) (end -0.38 -0.79) (layer F.Fab) (width 0.1))
  (fp_line (start 0.38 0.79) (end -0.38 0.79) (layer F.Fab) (width 0.1))
  (fp_line (start 0.38 -0.79) (end 0.38 0.79) (layer F.Fab) (width 0.1))
  (fp_line (start -0.38 -0.79) (end 0.38 -0.79) (layer F.Fab) (width 0.1))
  (fp_line (start -1.5 1.09) (end -1.5 -1.09) (layer F.CrtYd) (width 0.01))
  (fp_line (start 1.35 1.09) (end -1.5 1.09) (layer F.CrtYd) (width 0.01))
  (fp_line (start 1.35 -1.09) (end 1.35 1.09) (layer F.CrtYd) (width 0.01))
  (fp_line (start -1.5 -1.09) (end 1.35 -1.09) (layer F.CrtYd) (width 0.01))
  (fp_text user %R (at 0 0) (layer F.Fab)
    (effects (font (size 0.5 0.5) (thickness 0.1)))
  )
  (fp_line (start 0.625 -0.325) (end 0.625 -0.975) (layer F.SilkS) (width 0.1))
  (fp_line (start 0.625 0.975) (end 0.625 0.325) (layer F.SilkS) (width 0.1))
  (fp_line (start -1.25 0.975) (end 0.625 0.975) (layer F.SilkS) (width 0.1))
  (fp_line (start 0.95 0.325) (end 0.625 0.325) (layer F.SilkS) (width 0.1))
  (fp_line (start 0.95 -0.325) (end 0.625 -0.325) (layer F.SilkS) (width 0.1))
  (fp_line (start -0.675 -0.175) (end -1.25 -0.175) (layer F.SilkS) (width 0.1))
  (fp_line (start -0.675 0.175) (end -1.25 0.175) (layer F.SilkS) (width 0.1))
  (fp_line (start -0.675 -0.175) (end -0.675 0.175) (layer F.SilkS) (width 0.1))
  (pad 1 smd rect (at -0.8 -0.5 90) (size 0.4 0.9) (layers F.Cu F.Paste F.Mask))
  (pad 2 smd rect (at -0.8 0.5 90) (size 0.4 0.9) (layers F.Cu F.Paste F.Mask))
  (pad 3 smd rect (at 0.8 0 90) (size 0.4 0.9) (layers F.Cu F.Paste F.Mask))
  (model SI1012R-T1-GE3.stp
    (at (xyz 0 0 0))
    (scale (xyz 1 1 1))
    (rotate (xyz 0 0 0))
  )
)
