(module XCL230B0K1H2 (layer F.Cu) (tedit 61B06881)
  (descr XCL230B0K1H2-1)
  (tags "Power Supply")
  (solder_mask_margin -0.05)
  (solder_paste_margin -0.05)
  (attr smd)
  (fp_text reference %R (at -2.45 2.7 90) (layer F.SilkS)
    (effects (font (size 0.7 0.7) (thickness 0.15)))
  )
  (fp_text value %R (at 0 0.3) (layer Eco1.User) hide
    (effects (font (size 0.7 0.7) (thickness 0.15)))
  )
  (fp_line (start -1.5 1.5) (end 1.5 1.5) (layer F.Fab) (width 0.2))
  (fp_line (start 1.5 1.5) (end 1.5 -1.5) (layer F.Fab) (width 0.2))
  (fp_line (start 1.5 -1.5) (end -1.5 -1.5) (layer F.Fab) (width 0.2))
  (fp_line (start -1.5 -1.5) (end -1.5 1.5) (layer F.Fab) (width 0.2))
  (fp_line (start -1.5 1) (end -1.5 1) (layer F.SilkS) (width 0.1))
  (fp_line (start -1.5 1) (end -1.5 1.5) (layer F.SilkS) (width 0.1))
  (fp_line (start -1.5 1.5) (end -1.5 1.5) (layer F.SilkS) (width 0.1))
  (fp_line (start -1.5 1.5) (end -1.5 1) (layer F.SilkS) (width 0.1))
  (fp_line (start -1.5 1.5) (end -1.25 1.5) (layer F.SilkS) (width 0.1))
  (fp_line (start -1.25 1.5) (end -1.25 1.5) (layer F.SilkS) (width 0.1))
  (fp_line (start -1.25 1.5) (end -1.5 1.5) (layer F.SilkS) (width 0.1))
  (fp_line (start -1.5 1.5) (end -1.5 1.5) (layer F.SilkS) (width 0.1))
  (fp_line (start 1.25 1.5) (end 1.5 1.5) (layer F.SilkS) (width 0.1))
  (fp_line (start 1.5 1.5) (end 1.5 1.5) (layer F.SilkS) (width 0.1))
  (fp_line (start 1.5 1.5) (end 1.25 1.5) (layer F.SilkS) (width 0.1))
  (fp_line (start 1.25 1.5) (end 1.25 1.5) (layer F.SilkS) (width 0.1))
  (fp_line (start 1.5 1.5) (end 1.5 1.5) (layer F.SilkS) (width 0.1))
  (fp_line (start 1.5 1.5) (end 1.5 1) (layer F.SilkS) (width 0.1))
  (fp_line (start 1.5 1) (end 1.5 1) (layer F.SilkS) (width 0.1))
  (fp_line (start 1.5 1) (end 1.5 1.5) (layer F.SilkS) (width 0.1))
  (fp_line (start 1.25 -1.5) (end 1.5 -1.5) (layer F.SilkS) (width 0.1))
  (fp_line (start 1.5 -1.5) (end 1.5 -1.5) (layer F.SilkS) (width 0.1))
  (fp_line (start 1.5 -1.5) (end 1.25 -1.5) (layer F.SilkS) (width 0.1))
  (fp_line (start 1.25 -1.5) (end 1.25 -1.5) (layer F.SilkS) (width 0.1))
  (fp_line (start 1.5 -1.5) (end 1.5 -1.5) (layer F.SilkS) (width 0.1))
  (fp_line (start 1.5 -1.5) (end 1.5 -1) (layer F.SilkS) (width 0.1))
  (fp_line (start 1.5 -1) (end 1.5 -1) (layer F.SilkS) (width 0.1))
  (fp_line (start 1.5 -1) (end 1.5 -1.5) (layer F.SilkS) (width 0.1))
  (fp_line (start -1.25 -1.5) (end -1.5 -1.5) (layer F.SilkS) (width 0.1))
  (fp_line (start -1.5 -1.5) (end -1.5 -1.5) (layer F.SilkS) (width 0.1))
  (fp_line (start -1.5 -1.5) (end -1.25 -1.5) (layer F.SilkS) (width 0.1))
  (fp_line (start -1.25 -1.5) (end -1.25 -1.5) (layer F.SilkS) (width 0.1))
  (fp_line (start -1.5 -1.5) (end -1.5 -1.5) (layer F.SilkS) (width 0.1))
  (fp_line (start -1.5 -1.5) (end -1.5 -1) (layer F.SilkS) (width 0.1))
  (fp_line (start -1.5 -1) (end -1.5 -1) (layer F.SilkS) (width 0.1))
  (fp_line (start -1.5 -1) (end -1.5 -1.5) (layer F.SilkS) (width 0.1))
  (fp_line (start -2 -2) (end 2 -2) (layer F.CrtYd) (width 0.01))
  (fp_line (start 2 -2) (end 2 2) (layer F.CrtYd) (width 0.01))
  (fp_line (start 2 2) (end -2 2) (layer F.CrtYd) (width 0.01))
  (fp_line (start -2 2) (end -2 -2) (layer F.CrtYd) (width 0.01))
  (fp_line (start -1.75 1.7) (end -1.75 1.7) (layer F.SilkS) (width 0.2))
  (fp_line (start -1.75 1.8) (end -1.75 1.8) (layer F.SilkS) (width 0.2))
  (fp_line (start -1.75 1.7) (end -1.75 1.7) (layer F.SilkS) (width 0.2))
  (fp_poly (pts (xy -0.1 -0.1) (xy -0.55 -0.1) (xy -0.55 -0.65) (xy -0.1 -0.65)) (layer F.Paste) (width 0))
  (fp_poly (pts (xy 0.55 -0.1) (xy 0.1 -0.1) (xy 0.1 -0.65) (xy 0.55 -0.65)) (layer F.Paste) (width 0))
  (fp_poly (pts (xy -0.1 0.65) (xy -0.55 0.65) (xy -0.55 0.1) (xy -0.1 0.1)) (layer F.Paste) (width 0))
  (fp_poly (pts (xy 0.55 0.65) (xy 0.1 0.65) (xy 0.1 0.1) (xy 0.55 0.1)) (layer F.Paste) (width 0))
  (fp_arc (start -1.75 1.75) (end -1.75 1.7) (angle -180) (layer F.SilkS) (width 0.2))
  (fp_arc (start -1.75 1.75) (end -1.75 1.8) (angle -180) (layer F.SilkS) (width 0.2))
  (fp_arc (start -1.75 1.75) (end -1.75 1.7) (angle -180) (layer F.SilkS) (width 0.2))
  (pad 1 smd rect (at -0.75 1.45) (size 0.25 0.7) (layers F.Cu F.Paste F.Mask))
  (pad 2 smd rect (at -0.25 1.45) (size 0.25 0.7) (layers F.Cu F.Paste F.Mask))
  (pad 3 smd rect (at 0.25 1.45) (size 0.25 0.7) (layers F.Cu F.Paste F.Mask))
  (pad 4 smd rect (at 0.75 1.45) (size 0.25 0.7) (layers F.Cu F.Paste F.Mask))
  (pad 5 smd rect (at 0.75 -1.45) (size 0.25 0.7) (layers F.Cu F.Paste F.Mask))
  (pad 6 smd rect (at 0.25 -1.45) (size 0.25 0.7) (layers F.Cu F.Paste F.Mask))
  (pad 7 smd rect (at -0.25 -1.45) (size 0.25 0.7) (layers F.Cu F.Paste F.Mask))
  (pad 8 smd rect (at -0.75 -1.45) (size 0.25 0.7) (layers F.Cu F.Paste F.Mask))
  (pad 9 smd rect (at -1.11 0) (size 0.38 1.25) (layers F.Cu F.Paste F.Mask))
  (pad 10 smd rect (at 1.11 0) (size 0.38 1.25) (layers F.Cu F.Paste F.Mask))
  (pad 11 smd rect (at 0 0) (size 1.34 1.6) (layers F.Cu F.Mask))
  (model XCL230B0K1H2.stp
    (at (xyz 0 0 0))
    (scale (xyz 1 1 1))
    (rotate (xyz 0 0 0))
  )
)
