(module 431471031826 (layer F.Cu) (tedit 619F5174)
  (descr 431471031826-2)
  (tags Switch)
  (attr smd)
  (fp_text reference %R (at 0.5 0) (layer F.SilkS)
    (effects (font (size 1 1) (thickness 0.15)))
  )
  (fp_text value %R (at 0.5 0) (layer Eco1.User) hide
    (effects (font (size 1 1) (thickness 0.15)))
  )
  (fp_line (start 5.4 2.2) (end 5.4 2.2) (layer F.SilkS) (width 0.2))
  (fp_line (start 5.5 2.2) (end 5.5 2.2) (layer F.SilkS) (width 0.2))
  (fp_line (start 5.4 2.2) (end 5.4 2.2) (layer F.SilkS) (width 0.2))
  (fp_line (start -5.5 4.05) (end -5.5 -4.05) (layer F.CrtYd) (width 0.1))
  (fp_line (start 6.5 4.05) (end -5.5 4.05) (layer F.CrtYd) (width 0.1))
  (fp_line (start 6.5 -4.05) (end 6.5 4.05) (layer F.CrtYd) (width 0.1))
  (fp_line (start -5.5 -4.05) (end 6.5 -4.05) (layer F.CrtYd) (width 0.1))
  (fp_line (start -2 -3.05) (end -2 -3.05) (layer F.SilkS) (width 0.1))
  (fp_line (start 2 -3.05) (end -2 -3.05) (layer F.SilkS) (width 0.1))
  (fp_line (start 2 -3.05) (end 2 -3.05) (layer F.SilkS) (width 0.1))
  (fp_line (start -2 -3.05) (end 2 -3.05) (layer F.SilkS) (width 0.1))
  (fp_line (start 2 3.05) (end 2 3.05) (layer F.SilkS) (width 0.1))
  (fp_line (start -2 3.05) (end 2 3.05) (layer F.SilkS) (width 0.1))
  (fp_line (start -2 3.05) (end -2 3.05) (layer F.SilkS) (width 0.1))
  (fp_line (start 2 3.05) (end -2 3.05) (layer F.SilkS) (width 0.1))
  (fp_line (start 2.9 1) (end 2.9 -1) (layer F.SilkS) (width 0.1))
  (fp_line (start 2.9 1) (end 2.9 1) (layer F.SilkS) (width 0.1))
  (fp_line (start 2.9 -1) (end 2.9 1) (layer F.SilkS) (width 0.1))
  (fp_line (start 2.9 -1) (end 2.9 -1) (layer F.SilkS) (width 0.1))
  (fp_line (start -2.9 -3.05) (end -2.9 3.05) (layer F.Fab) (width 0.2))
  (fp_line (start 2.9 -3.05) (end -2.9 -3.05) (layer F.Fab) (width 0.2))
  (fp_line (start 2.9 3.05) (end 2.9 -3.05) (layer F.Fab) (width 0.2))
  (fp_line (start -2.9 3.05) (end 2.9 3.05) (layer F.Fab) (width 0.2))
  (fp_arc (start 5.45 2.2) (end 5.4 2.2) (angle -180) (layer F.SilkS) (width 0.2))
  (fp_arc (start 5.45 2.2) (end 5.5 2.2) (angle -180) (layer F.SilkS) (width 0.2))
  (fp_arc (start 5.45 2.2) (end 5.4 2.2) (angle -180) (layer F.SilkS) (width 0.2))
  (pad 1 smd rect (at 3.5 2.25 90) (size 1.3 2) (layers F.Cu F.Paste F.Mask))
  (pad 2 smd rect (at -3.5 2.25 90) (size 1.3 2) (layers F.Cu F.Paste F.Mask))
  (pad 3 smd rect (at 3.5 -2.25 90) (size 1.3 2) (layers F.Cu F.Paste F.Mask))
  (pad 4 smd rect (at -3.5 -2.25 90) (size 1.3 2) (layers F.Cu F.Paste F.Mask))
  (pad 5 smd rect (at -3.75 0 90) (size 1.3 1.5) (layers F.Cu F.Paste F.Mask))
  (model 431471031826.stp
    (at (xyz 0 0 0))
    (scale (xyz 1 1 1))
    (rotate (xyz 0 0 0))
  )
)
