(module Liberaware (layer F.Cu) (tedit 61B70497)
  (fp_text reference "" (at 0.01 0.385) (layer Eco1.User) hide
    (effects (font (size 1 1) (thickness 0.15)))
  )
  (fp_text value "" (at 0.01 -0.615) (layer Eco1.User) hide
    (effects (font (size 1 1) (thickness 0.15)))
  )
  (fp_line (start -3.87 -0.77) (end -3.87 0.02) (layer F.SilkS) (width 0.24))
  (fp_circle (center -3.15 -0.76) (end -3.169377 -0.76) (layer F.SilkS) (width 0.2))
  (fp_line (start -3.16 -0.37) (end -3.16 0.29) (layer F.SilkS) (width 0.24))
  (fp_line (start -2.76 -0.77) (end -2.77 -0.05) (layer F.SilkS) (width 0.24))
  (fp_circle (center -2.44 -0.05) (end -2.12 -0.05) (layer F.SilkS) (width 0.25))
  (fp_line (start -1.23 -0.26) (end -1.64 0.15) (layer F.SilkS) (width 0.2))
  (fp_line (start -0.91 -0.07) (end -0.91 0.3) (layer F.SilkS) (width 0.24))
  (fp_circle (center 0.009839 -0.040161) (end 0.319839 -0.050161) (layer F.SilkS) (width 0.25))
  (fp_line (start 0.33 -0.03) (end 0.33 0.35) (layer F.SilkS) (width 0.24))
  (fp_line (start 0.67 -0.38) (end 0.67 0.04) (layer F.SilkS) (width 0.24))
  (fp_line (start 1.06 -0.38) (end 1.06 0.08) (layer F.SilkS) (width 0.24))
  (fp_line (start 1.45 -0.39) (end 1.45 0.09) (layer F.SilkS) (width 0.24))
  (fp_line (start 2.43 -0.04) (end 2.43 0.34) (layer F.SilkS) (width 0.24))
  (fp_circle (center 2.109839 -0.050161) (end 2.419839 -0.060161) (layer F.SilkS) (width 0.25))
  (fp_line (start 2.76 -0.08) (end 2.76 0.29) (layer F.SilkS) (width 0.24))
  (fp_line (start 3.91 -0.27) (end 3.5 0.14) (layer F.SilkS) (width 0.2))
  (fp_poly (pts (xy -2.43 0.48) (xy -2.44 0.58) (xy -2.58 0.79) (xy -2.78 0.98)
    (xy -3.12 1.22) (xy -3.56 1.4) (xy -3.86 1.46) (xy -4.04 1.47)
    (xy -4.22 1.42) (xy -4.29 1.35) (xy -4.31 1.22) (xy -4.29 1.14)
    (xy -4.3 1.13) (xy -4.52 1.15) (xy -4.65 1.15) (xy -4.77 1.12)
    (xy -4.84 1.06) (xy -4.85 1.02) (xy -4.82 0.95) (xy -4.73 0.84)
    (xy -4.56 0.73) (xy -4.32 0.68) (xy -4.06 0.67) (xy -3.84 0.63)
    (xy -3.7 0.6) (xy -3.59 0.6) (xy -3.54 0.64) (xy -3.53 0.68)
    (xy -3.53 0.73) (xy -3.58 0.79) (xy -3.65 0.84) (xy -3.73 0.87)
    (xy -3.77 0.89) (xy -3.52 0.89) (xy -3.47 0.9) (xy -3.43 0.93)
    (xy -3.41 0.98) (xy -3.41 1.03) (xy -3.39 1.03) (xy -2.81 0.6)
    (xy -2.64 0.48) (xy -2.53 0.44) (xy -2.48 0.44)) (layer F.SilkS) (width 0.1))
  (fp_poly (pts (xy -4.17 -0.13) (xy -4.09 -0.05) (xy -4.05 0.06) (xy -4.08 0.14)
    (xy -4.2 0.2) (xy -4.35 0.23) (xy -4.73 0.28) (xy -5.07 0.4)
    (xy -5.42 0.62) (xy -5.44 0.65) (xy -5.29 0.61) (xy -5.06 0.55)
    (xy -4.97 0.57) (xy -4.94 0.63) (xy -5.02 0.77) (xy -5.26 0.96)
    (xy -5.37 0.99) (xy -5.57 1.09) (xy -5.8 1.15) (xy -6 1.2)
    (xy -6.15 1.28) (xy -6.22 1.31) (xy -6.28 1.26) (xy -6.28 1.15)
    (xy -6.19 0.96) (xy -5.99 0.73) (xy -5.68 0.43) (xy -5.35 0.2)
    (xy -4.97 0) (xy -4.48 -0.15) (xy -4.31 -0.17)) (layer F.SilkS) (width 0.1))
  (fp_arc (start -3.593823 0.008677) (end -3.87 0) (angle -104.3729428) (layer F.SilkS) (width 0.24))
  (fp_arc (start -1.46 -0.04) (end -1.21 -0.28) (angle -271.7836079) (layer F.SilkS) (width 0.2))
  (fp_arc (start -0.603146 -0.063892) (end -0.59 -0.37) (angle -89.54582957) (layer F.SilkS) (width 0.24))
  (fp_arc (start 0.86 0.08) (end 0.67 0.07) (angle -186.1884249) (layer F.SilkS) (width 0.24))
  (fp_arc (start 1.26 0.1) (end 1.07 0.09) (angle -186.1884249) (layer F.SilkS) (width 0.24))
  (fp_arc (start 3.066854 -0.073892) (end 3.08 -0.38) (angle -89.54582957) (layer F.SilkS) (width 0.24))
  (fp_arc (start 3.68 -0.05) (end 3.93 -0.29) (angle -271.7836079) (layer F.SilkS) (width 0.2))
)
