(module B3B-XH-A (layer F.Cu) (tedit 61961F53)
  (fp_text reference REF** (at -1.4 3.3) (layer F.SilkS)
    (effects (font (size 1 1) (thickness 0.15)))
  )
  (fp_text value REF** (at -1.4 3.3) (layer Eco1.User) hide
    (effects (font (size 1 1) (thickness 0.15)))
  )
  (fp_poly (pts (xy 2.8 3) (xy 2.2 3) (xy 2.5 2.5)) (layer F.SilkS) (width 0.1))
  (fp_line (start -4.95 -3.4) (end 4.95 -3.4) (layer F.Fab) (width 0.127))
  (fp_line (start 4.95 -3.4) (end 4.95 2.35) (layer F.Fab) (width 0.127))
  (fp_line (start 4.95 2.35) (end -4.95 2.35) (layer F.Fab) (width 0.127))
  (fp_line (start -4.95 -3.4) (end 4.95 -3.4) (layer F.SilkS) (width 0.127))
  (fp_line (start -4.95 2.35) (end -4.95 -3.4) (layer F.Fab) (width 0.127))
  (fp_line (start -4.95 2.35) (end -4.95 -3.4) (layer F.SilkS) (width 0.127))
  (fp_line (start 4.95 2.35) (end -4.95 2.35) (layer F.SilkS) (width 0.127))
  (fp_line (start 4.95 -3.4) (end 4.95 2.35) (layer F.SilkS) (width 0.127))
  (fp_line (start -5.2 -3.65) (end 5.2 -3.65) (layer F.CrtYd) (width 0.05))
  (fp_line (start 5.2 -3.65) (end 5.2 2.6) (layer F.CrtYd) (width 0.05))
  (fp_line (start 5.2 2.6) (end -5.2 2.6) (layer F.CrtYd) (width 0.05))
  (fp_line (start -5.2 2.6) (end -5.2 -3.65) (layer F.CrtYd) (width 0.05))
  (pad 2 thru_hole circle (at 0 0) (size 1.508 1.508) (drill 1) (layers *.Cu *.Mask))
  (pad 3 thru_hole circle (at -2.5 0) (size 1.508 1.508) (drill 1) (layers *.Cu *.Mask))
  (pad 1 thru_hole rect (at 2.5 0) (size 1.508 1.508) (drill 1) (layers *.Cu *.Mask))
  (model B3B-XH-A.step
    (at (xyz 0 -0 0))
    (scale (xyz 1 1 1))
    (rotate (xyz -90 0 0))
  )
)
