(module IPEX_20709-020E-01 (layer F.Cu) (tedit 61651EA4)
  (fp_text reference REF** (at 0.1 0) (layer F.SilkS)
    (effects (font (size 0.4 0.4) (thickness 0.1)))
  )
  (fp_text value REF** (at 0.1 0) (layer Eco1.User)
    (effects (font (size 0.4 0.4) (thickness 0.1)))
  )
  (fp_poly (pts (xy -0.965 -1.3) (xy -0.785 -1.3) (xy -0.785 -0.79) (xy -0.965 -0.79)) (layer F.Paste) (width 0.01))
  (fp_poly (pts (xy -0.965 0.79) (xy -0.785 0.79) (xy -0.785 1.3) (xy -0.965 1.3)) (layer F.Paste) (width 0.01))
  (fp_poly (pts (xy -1.315 -1.3) (xy -1.135 -1.3) (xy -1.135 -0.79) (xy -1.315 -0.79)) (layer F.Paste) (width 0.01))
  (fp_poly (pts (xy -1.665 -1.3) (xy -1.485 -1.3) (xy -1.485 -0.79) (xy -1.665 -0.79)) (layer F.Paste) (width 0.01))
  (fp_poly (pts (xy -0.615 -1.3) (xy -0.435 -1.3) (xy -0.435 -0.79) (xy -0.615 -0.79)) (layer F.Paste) (width 0.01))
  (fp_poly (pts (xy -0.265 -1.3) (xy -0.085 -1.3) (xy -0.085 -0.79) (xy -0.265 -0.79)) (layer F.Paste) (width 0.01))
  (fp_poly (pts (xy -1.315 0.79) (xy -1.135 0.79) (xy -1.135 1.3) (xy -1.315 1.3)) (layer F.Paste) (width 0.01))
  (fp_poly (pts (xy -1.665 0.79) (xy -1.485 0.79) (xy -1.485 1.3) (xy -1.665 1.3)) (layer F.Paste) (width 0.01))
  (fp_poly (pts (xy -0.615 0.79) (xy -0.435 0.79) (xy -0.435 1.3) (xy -0.615 1.3)) (layer F.Paste) (width 0.01))
  (fp_poly (pts (xy -0.265 0.79) (xy -0.085 0.79) (xy -0.085 1.3) (xy -0.265 1.3)) (layer F.Paste) (width 0.01))
  (fp_poly (pts (xy -2.89 -1.3) (xy -2.61 -1.3) (xy -2.61 -0.86) (xy -2.89 -0.86)) (layer F.Paste) (width 0.01))
  (fp_poly (pts (xy -2.89 0.86) (xy -2.61 0.86) (xy -2.61 1.3) (xy -2.89 1.3)) (layer F.Paste) (width 0.01))
  (fp_poly (pts (xy 2.61 -1.3) (xy 2.89 -1.3) (xy 2.89 -0.86) (xy 2.61 -0.86)) (layer F.Paste) (width 0.01))
  (fp_poly (pts (xy 2.61 0.86) (xy 2.89 0.86) (xy 2.89 1.3) (xy 2.61 1.3)) (layer F.Paste) (width 0.01))
  (fp_poly (pts (xy -0.985 -1.3) (xy -0.765 -1.3) (xy -0.765 -0.79) (xy -0.985 -0.79)) (layer F.Mask) (width 0.01))
  (fp_poly (pts (xy -1.335 -1.3) (xy -1.115 -1.3) (xy -1.115 -0.79) (xy -1.335 -0.79)) (layer F.Mask) (width 0.01))
  (fp_poly (pts (xy -1.685 -1.3) (xy -1.465 -1.3) (xy -1.465 -0.79) (xy -1.685 -0.79)) (layer F.Mask) (width 0.01))
  (fp_poly (pts (xy -0.635 -1.3) (xy -0.415 -1.3) (xy -0.415 -0.79) (xy -0.635 -0.79)) (layer F.Mask) (width 0.01))
  (fp_poly (pts (xy -0.285 -1.3) (xy -0.065 -1.3) (xy -0.065 -0.79) (xy -0.285 -0.79)) (layer F.Mask) (width 0.01))
  (fp_poly (pts (xy -0.985 0.79) (xy -0.765 0.79) (xy -0.765 1.3) (xy -0.985 1.3)) (layer F.Mask) (width 0.01))
  (fp_poly (pts (xy -1.335 0.79) (xy -1.115 0.79) (xy -1.115 1.3) (xy -1.335 1.3)) (layer F.Mask) (width 0.01))
  (fp_poly (pts (xy -1.685 0.79) (xy -1.465 0.79) (xy -1.465 1.3) (xy -1.685 1.3)) (layer F.Mask) (width 0.01))
  (fp_poly (pts (xy -0.635 0.79) (xy -0.415 0.79) (xy -0.415 1.3) (xy -0.635 1.3)) (layer F.Mask) (width 0.01))
  (fp_poly (pts (xy -0.285 0.79) (xy -0.065 0.79) (xy -0.065 1.3) (xy -0.285 1.3)) (layer F.Mask) (width 0.01))
  (fp_poly (pts (xy -2.925 -1.3) (xy -2.575 -1.3) (xy -2.575 -0.86) (xy -2.925 -0.86)) (layer F.Mask) (width 0.01))
  (fp_poly (pts (xy 2.575 -1.3) (xy 2.925 -1.3) (xy 2.925 -0.86) (xy 2.575 -0.86)) (layer F.Mask) (width 0.01))
  (fp_poly (pts (xy -2.925 0.86) (xy -2.575 0.86) (xy -2.575 1.3) (xy -2.925 1.3)) (layer F.Mask) (width 0.01))
  (fp_poly (pts (xy 2.575 0.86) (xy 2.925 0.86) (xy 2.925 1.3) (xy 2.575 1.3)) (layer F.Mask) (width 0.01))
  (fp_line (start -2.835 1.03) (end -2.835 -1.03) (layer F.Fab) (width 0.127))
  (fp_line (start -2.835 -1.03) (end 2.835 -1.03) (layer F.Fab) (width 0.127))
  (fp_line (start 2.835 -1.03) (end 2.835 1.03) (layer F.Fab) (width 0.127))
  (fp_line (start 2.835 1.03) (end -2.835 1.03) (layer F.Fab) (width 0.127))
  (fp_line (start -2.325 -1.03) (end -1.935 -1.03) (layer F.SilkS) (width 0.127))
  (fp_line (start 1.935 -1.03) (end 2.325 -1.03) (layer F.SilkS) (width 0.127))
  (fp_line (start -2.325 1.03) (end -1.935 1.03) (layer F.SilkS) (width 0.127))
  (fp_line (start 1.935 1.03) (end 2.325 1.03) (layer F.SilkS) (width 0.127))
  (fp_line (start -2.835 -0.61) (end -2.835 0.61) (layer F.SilkS) (width 0.127))
  (fp_line (start 2.835 -0.61) (end 2.835 0.61) (layer F.SilkS) (width 0.127))
  (fp_line (start -3.175 1.55) (end -3.175 -1.55) (layer F.CrtYd) (width 0.05))
  (fp_line (start -3.175 -1.55) (end 3.175 -1.55) (layer F.CrtYd) (width 0.05))
  (fp_line (start 3.175 -1.55) (end 3.175 1.55) (layer F.CrtYd) (width 0.05))
  (fp_line (start 3.175 1.55) (end -3.175 1.55) (layer F.CrtYd) (width 0.05))
  (fp_poly (pts (xy 0.085 -1.3) (xy 0.265 -1.3) (xy 0.265 -0.79) (xy 0.085 -0.79)) (layer F.Paste) (width 0.01))
  (fp_poly (pts (xy 0.435 -1.3) (xy 0.615 -1.3) (xy 0.615 -0.79) (xy 0.435 -0.79)) (layer F.Paste) (width 0.01))
  (fp_poly (pts (xy 0.085 0.79) (xy 0.265 0.79) (xy 0.265 1.3) (xy 0.085 1.3)) (layer F.Paste) (width 0.01))
  (fp_poly (pts (xy 0.435 0.79) (xy 0.615 0.79) (xy 0.615 1.3) (xy 0.435 1.3)) (layer F.Paste) (width 0.01))
  (fp_poly (pts (xy 0.065 -1.3) (xy 0.285 -1.3) (xy 0.285 -0.79) (xy 0.065 -0.79)) (layer F.Mask) (width 0.01))
  (fp_poly (pts (xy 0.415 -1.3) (xy 0.635 -1.3) (xy 0.635 -0.79) (xy 0.415 -0.79)) (layer F.Mask) (width 0.01))
  (fp_poly (pts (xy 0.065 0.79) (xy 0.285 0.79) (xy 0.285 1.3) (xy 0.065 1.3)) (layer F.Mask) (width 0.01))
  (fp_poly (pts (xy 0.415 0.79) (xy 0.635 0.79) (xy 0.635 1.3) (xy 0.415 1.3)) (layer F.Mask) (width 0.01))
  (fp_poly (pts (xy 0.785 -1.3) (xy 0.965 -1.3) (xy 0.965 -0.79) (xy 0.785 -0.79)) (layer F.Paste) (width 0.01))
  (fp_poly (pts (xy 1.135 -1.3) (xy 1.315 -1.3) (xy 1.315 -0.79) (xy 1.135 -0.79)) (layer F.Paste) (width 0.01))
  (fp_poly (pts (xy 0.785 0.79) (xy 0.965 0.79) (xy 0.965 1.3) (xy 0.785 1.3)) (layer F.Paste) (width 0.01))
  (fp_poly (pts (xy 1.135 0.79) (xy 1.315 0.79) (xy 1.315 1.3) (xy 1.135 1.3)) (layer F.Paste) (width 0.01))
  (fp_poly (pts (xy 0.765 -1.3) (xy 0.985 -1.3) (xy 0.985 -0.79) (xy 0.765 -0.79)) (layer F.Mask) (width 0.01))
  (fp_poly (pts (xy 1.115 -1.3) (xy 1.335 -1.3) (xy 1.335 -0.79) (xy 1.115 -0.79)) (layer F.Mask) (width 0.01))
  (fp_poly (pts (xy 0.765 0.79) (xy 0.985 0.79) (xy 0.985 1.3) (xy 0.765 1.3)) (layer F.Mask) (width 0.01))
  (fp_poly (pts (xy 1.115 0.79) (xy 1.335 0.79) (xy 1.335 1.3) (xy 1.115 1.3)) (layer F.Mask) (width 0.01))
  (fp_poly (pts (xy 1.485 -1.3) (xy 1.665 -1.3) (xy 1.665 -0.79) (xy 1.485 -0.79)) (layer F.Paste) (width 0.01))
  (fp_poly (pts (xy 1.485 0.79) (xy 1.665 0.79) (xy 1.665 1.3) (xy 1.485 1.3)) (layer F.Paste) (width 0.01))
  (fp_poly (pts (xy 1.465 -1.3) (xy 1.685 -1.3) (xy 1.685 -0.79) (xy 1.465 -0.79)) (layer F.Mask) (width 0.01))
  (fp_poly (pts (xy 1.465 0.79) (xy 1.685 0.79) (xy 1.685 1.3) (xy 1.465 1.3)) (layer F.Mask) (width 0.01))
  (fp_poly (pts (xy -1.8 1.9) (xy -2.2 1.9) (xy -2 1.6)) (layer F.SilkS) (width 0.1))
  (pad 1 smd rect (at -1.575 1.045) (size 0.22 0.51) (layers F.Cu))
  (pad 2 smd rect (at -1.575 -1.045) (size 0.22 0.51) (layers F.Cu))
  (pad 3 smd rect (at -1.225 1.045) (size 0.22 0.51) (layers F.Cu))
  (pad 4 smd rect (at -1.225 -1.045) (size 0.22 0.51) (layers F.Cu))
  (pad 5 smd rect (at -0.875 1.045) (size 0.22 0.51) (layers F.Cu))
  (pad 6 smd rect (at -0.875 -1.045) (size 0.22 0.51) (layers F.Cu))
  (pad 7 smd rect (at -0.525 1.045) (size 0.22 0.51) (layers F.Cu))
  (pad 8 smd rect (at -0.525 -1.045) (size 0.22 0.51) (layers F.Cu))
  (pad 9 smd rect (at -0.175 1.045) (size 0.22 0.51) (layers F.Cu))
  (pad 10 smd rect (at -0.175 -1.045) (size 0.22 0.51) (layers F.Cu))
  (pad S1 smd rect (at -2.75 -1.08) (size 0.35 0.44) (layers F.Cu))
  (pad S2 smd rect (at 2.75 -1.08) (size 0.35 0.44) (layers F.Cu))
  (pad S3 smd rect (at -2.75 1.08) (size 0.35 0.44) (layers F.Cu))
  (pad S4 smd rect (at 2.75 1.08) (size 0.35 0.44) (layers F.Cu))
  (pad 11 smd rect (at 0.175 1.045) (size 0.22 0.51) (layers F.Cu))
  (pad 12 smd rect (at 0.175 -1.045) (size 0.22 0.51) (layers F.Cu))
  (pad 13 smd rect (at 0.525 1.045) (size 0.22 0.51) (layers F.Cu))
  (pad 14 smd rect (at 0.525 -1.045) (size 0.22 0.51) (layers F.Cu))
  (pad 15 smd rect (at 0.875 1.045) (size 0.22 0.51) (layers F.Cu))
  (pad 16 smd rect (at 0.875 -1.045) (size 0.22 0.51) (layers F.Cu))
  (pad 17 smd rect (at 1.225 1.045) (size 0.22 0.51) (layers F.Cu))
  (pad 18 smd rect (at 1.225 -1.045) (size 0.22 0.51) (layers F.Cu))
  (pad 19 smd rect (at 1.575 1.045) (size 0.22 0.51) (layers F.Cu))
  (pad 20 smd rect (at 1.575 -1.045) (size 0.22 0.51) (layers F.Cu))
  (model I-PEX_20709-020E-01.STEP
    (offset (xyz 1.57 0 0))
    (scale (xyz 1 1 1))
    (rotate (xyz -90 0 0))
  )
)
