(module TE_2305018-2 (layer F.Cu) (tedit 61566DFC)
  (fp_text reference REF** (at -2.973105 -5.666129) (layer F.SilkS)
    (effects (font (size 0.641101 0.641101) (thickness 0.15)))
  )
  (fp_text value TE_2305018-2 (at -0.123382 4.850714) (layer F.Fab)
    (effects (font (size 0.640939 0.640939) (thickness 0.15)))
  )
  (fp_circle (center -3.085 -4.907) (end -2.985 -4.907) (layer F.SilkS) (width 0.2))
  (fp_line (start 5.175 4.45) (end -5.175 4.45) (layer F.CrtYd) (width 0.05))
  (fp_line (start 5.175 -4.7) (end 5.175 4.45) (layer F.CrtYd) (width 0.05))
  (fp_line (start -5.175 -4.7) (end 5.175 -4.7) (layer F.CrtYd) (width 0.05))
  (fp_line (start -5.175 4.45) (end -5.175 -4.7) (layer F.CrtYd) (width 0.05))
  (fp_line (start -4.925 -4.30938) (end -4.925 -4.45) (layer F.SilkS) (width 0.127))
  (fp_line (start -4.925 -1.23125) (end -4.925 -2.15469) (layer F.SilkS) (width 0.127))
  (fp_line (start -4.925 1.4) (end -4.925 1.23125) (layer F.SilkS) (width 0.127))
  (fp_line (start 4.925 -4.30938) (end 4.925 -4.45) (layer F.SilkS) (width 0.127))
  (fp_line (start 4.925 -1.23125) (end 4.925 -2.15469) (layer F.SilkS) (width 0.127))
  (fp_line (start 4.925 1.4) (end 4.925 1.23125) (layer F.SilkS) (width 0.127))
  (fp_line (start 4.925 1.4) (end -4.925 1.4) (layer F.SilkS) (width 0.127))
  (fp_line (start -4.925 -4.45) (end 4.925 -4.45) (layer F.SilkS) (width 0.127))
  (fp_line (start -4.925 4.2) (end 4.925 4.2) (layer F.Fab) (width 0.127))
  (fp_line (start 4.925 -4.45) (end 4.925 4.2) (layer F.Fab) (width 0.127))
  (fp_line (start -4.925 -4.45) (end 4.925 -4.45) (layer F.Fab) (width 0.127))
  (fp_line (start -4.925 4.2) (end -4.925 -4.45) (layer F.Fab) (width 0.127))
  (pad S1 thru_hole oval (at -4.45 0) (size 1.025 2.05) (drill oval 0.45 1.65) (layers *.Cu *.Mask))
  (pad S2 thru_hole oval (at 4.45 0) (size 1.025 2.05) (drill oval 0.45 1.65) (layers *.Cu *.Mask))
  (pad S3 thru_hole oval (at -4.45 -3.2) (size 0.925 1.85) (drill oval 0.45 1.45) (layers *.Cu *.Mask))
  (pad S4 thru_hole oval (at 4.45 -3.2) (size 0.925 1.85) (drill oval 0.45 1.45) (layers *.Cu *.Mask))
  (pad G1 smd rect (at -3.55 -3.375) (size 0.3 0.75) (layers F.Cu F.Paste F.Mask))
  (pad G2 smd rect (at 3.55 -3.375) (size 0.3 0.75) (layers F.Cu F.Paste F.Mask))
  (pad A1 smd rect (at -3.05 -3.375) (size 0.25 0.75) (layers F.Cu F.Paste F.Mask))
  (pad A2 smd rect (at -2.25 -3.375) (size 0.25 0.75) (layers F.Cu F.Paste F.Mask))
  (pad A3 smd rect (at -1.75 -3.375) (size 0.25 0.75) (layers F.Cu F.Paste F.Mask))
  (pad A4 smd rect (at -1.25 -3.375) (size 0.25 0.75) (layers F.Cu F.Paste F.Mask))
  (pad A5 smd rect (at -0.75 -3.375) (size 0.25 0.75) (layers F.Cu F.Paste F.Mask))
  (pad A6 smd rect (at -0.25 -3.375) (size 0.25 0.75) (layers F.Cu F.Paste F.Mask))
  (pad A7 smd rect (at 0.25 -3.375) (size 0.25 0.75) (layers F.Cu F.Paste F.Mask))
  (pad A8 smd rect (at 0.75 -3.375) (size 0.25 0.75) (layers F.Cu F.Paste F.Mask))
  (pad A9 smd rect (at 1.25 -3.375) (size 0.25 0.75) (layers F.Cu F.Paste F.Mask))
  (pad A10 smd rect (at 1.75 -3.375) (size 0.25 0.75) (layers F.Cu F.Paste F.Mask))
  (pad A11 smd rect (at 2.25 -3.375) (size 0.25 0.75) (layers F.Cu F.Paste F.Mask))
  (pad A12 smd rect (at 3.05 -3.375) (size 0.25 0.75) (layers F.Cu F.Paste F.Mask))
  (pad B1 smd rect (at 3 -2.125) (size 0.25 0.75) (layers F.Cu F.Paste F.Mask))
  (pad B2 smd rect (at 2.5 -2.125) (size 0.25 0.75) (layers F.Cu F.Paste F.Mask))
  (pad B3 smd rect (at 2 -2.125) (size 0.25 0.75) (layers F.Cu F.Paste F.Mask))
  (pad B4 smd rect (at 1.5 -2.125) (size 0.25 0.75) (layers F.Cu F.Paste F.Mask))
  (pad B5 smd rect (at 1 -2.125) (size 0.25 0.75) (layers F.Cu F.Paste F.Mask))
  (pad B6 smd rect (at 0.5 -2.125) (size 0.25 0.75) (layers F.Cu F.Paste F.Mask))
  (pad B7 smd rect (at -0.5 -2.125) (size 0.25 0.75) (layers F.Cu F.Paste F.Mask))
  (pad B8 smd rect (at -1 -2.125) (size 0.25 0.75) (layers F.Cu F.Paste F.Mask))
  (pad B9 smd rect (at -1.5 -2.125) (size 0.25 0.75) (layers F.Cu F.Paste F.Mask))
  (pad B10 smd rect (at -2 -2.125) (size 0.25 0.75) (layers F.Cu F.Paste F.Mask))
  (pad B11 smd rect (at -2.5 -2.125) (size 0.25 0.75) (layers F.Cu F.Paste F.Mask))
  (pad B12 smd rect (at -3 -2.125) (size 0.25 0.75) (layers F.Cu F.Paste F.Mask))
  (model USB_2305018-2.step
    (offset (xyz 0 -3 1.5))
    (scale (xyz 1 1 1))
    (rotate (xyz -90 0 0))
  )
)
