(module LW-ESC01 (layer F.Cu) (tedit 61D52F12)
  (fp_text reference REF** (at -3 -5.5) (layer Eco1.User)
    (effects (font (size 1 1) (thickness 0.15)))
  )
  (fp_text value LW-ESC01 (at -4 -7) (layer Eco1.User)
    (effects (font (size 1 1) (thickness 0.15)))
  )
  (fp_poly (pts (xy -6.8 0) (xy -6 2) (xy -10 0) (xy -6 -2)) (layer F.SilkS) (width 0.1))
  (fp_line (start -18.5 -12) (end 18.5 -12) (layer F.SilkS) (width 0.12))
  (fp_line (start -18.5 -12) (end -18.5 12) (layer F.SilkS) (width 0.12))
  (fp_line (start 18.5 -12) (end 18.5 12) (layer F.SilkS) (width 0.12))
  (fp_line (start -18.5 12) (end 18.5 12) (layer F.SilkS) (width 0.12))
  (fp_line (start -18.5 12) (end 18.5 12) (layer B.CrtYd) (width 0.12))
  (fp_line (start 18.5 12) (end 18.5 -12) (layer B.CrtYd) (width 0.12))
  (fp_line (start 18.5 -12) (end -18.5 -12) (layer B.CrtYd) (width 0.12))
  (fp_line (start -18.5 -12) (end -18.5 12) (layer B.CrtYd) (width 0.12))
  (fp_text user U (at -19.5 -2.5) (layer F.SilkS)
    (effects (font (size 1 1) (thickness 0.15)))
  )
  (fp_text user V (at -19.5 -5) (layer F.SilkS)
    (effects (font (size 1 1) (thickness 0.15)))
  )
  (fp_text user W (at -19.5 -7.5) (layer F.SilkS)
    (effects (font (size 1 1) (thickness 0.15)))
  )
  (fp_text user U (at -19.5 6.5) (layer F.SilkS)
    (effects (font (size 1 1) (thickness 0.15)))
  )
  (fp_text user W (at -19.5 1.5) (layer F.SilkS)
    (effects (font (size 1 1) (thickness 0.15)))
  )
  (fp_text user V (at -19.5 4) (layer F.SilkS)
    (effects (font (size 1 1) (thickness 0.15)))
  )
  (fp_text user U (at 20 -7.5) (layer F.SilkS)
    (effects (font (size 1 1) (thickness 0.15)))
  )
  (fp_text user W (at 20 -2.5) (layer F.SilkS)
    (effects (font (size 1 1) (thickness 0.15)))
  )
  (fp_text user V (at 20 -5) (layer F.SilkS)
    (effects (font (size 1 1) (thickness 0.15)))
  )
  (fp_text user U (at 20 1.5) (layer F.SilkS)
    (effects (font (size 1 1) (thickness 0.15)))
  )
  (fp_text user W (at 20 6.5) (layer F.SilkS)
    (effects (font (size 1 1) (thickness 0.15)))
  )
  (fp_text user V (at 20 4) (layer F.SilkS)
    (effects (font (size 1 1) (thickness 0.15)))
  )
  (pad 1 thru_hole oval (at -16.5 -2.42) (size 2 1.4) (drill 1) (layers *.Cu *.Mask))
  (pad 2 thru_hole oval (at -16.5 -4.96) (size 2 1.4) (drill 1) (layers *.Cu *.Mask))
  (pad 3 thru_hole oval (at -16.5 -7.5) (size 2 1.4) (drill 1) (layers *.Cu *.Mask))
  (pad 4 thru_hole oval (at 16.5 -7.5) (size 2 1.4) (drill 1) (layers *.Cu *.Mask))
  (pad 5 thru_hole oval (at 16.5 -4.96) (size 2 1.4) (drill 1) (layers *.Cu *.Mask))
  (pad 6 thru_hole oval (at 16.5 -2.42) (size 2 1.4) (drill 1) (layers *.Cu *.Mask))
  (pad 7 thru_hole oval (at 16.5 1.4) (size 2 1.4) (drill 1) (layers *.Cu *.Mask))
  (pad 8 thru_hole oval (at 16.5 3.94) (size 2 1.4) (drill 1) (layers *.Cu *.Mask))
  (pad 9 thru_hole oval (at 16.5 6.48) (size 2 1.4) (drill 1) (layers *.Cu *.Mask))
  (pad 10 thru_hole oval (at -16.5 6.48) (size 2 1.4) (drill 1) (layers *.Cu *.Mask))
  (pad 11 thru_hole oval (at -16.5 3.94) (size 2 1.4) (drill 1) (layers *.Cu *.Mask))
  (pad 12 thru_hole oval (at -16.5 1.4) (size 2 1.4) (drill 1) (layers *.Cu *.Mask))
  (model LW-ESC01.step
    (offset (xyz 0 0 5))
    (scale (xyz 1 1 1))
    (rotate (xyz 0 0 0))
  )
)
