(module TOF_ANGLE_PAD_HOLE (layer F.Cu) (tedit 61DFC956)
  (fp_text reference Ref** (at 0 0.5) (layer Eco1.User)
    (effects (font (size 1 1) (thickness 0.15)))
  )
  (fp_text value Val** (at 0 0.5) (layer Eco1.User)
    (effects (font (size 1 1) (thickness 0.15)))
  )
  (fp_poly (pts (xy 1.05 1.7) (xy 0.55 1.7) (xy 0.55 1.2) (xy 1.05 1.2)) (layer B.Mask) (width 0))
  (fp_poly (pts (xy 0.25 1.7) (xy -0.25 1.7) (xy -0.25 1.2) (xy 0.25 1.2)) (layer B.Mask) (width 0))
  (fp_poly (pts (xy -0.55 1.7) (xy -1.05 1.7) (xy -1.05 1.2) (xy -0.55 1.2)) (layer B.Mask) (width 0))
  (fp_poly (pts (xy 1.05 1.7) (xy 0.55 1.7) (xy 0.55 1.2) (xy 1.05 1.2)) (layer B.Cu) (width 0))
  (fp_poly (pts (xy 0.25 1.7) (xy -0.25 1.7) (xy -0.25 1.2) (xy 0.25 1.2)) (layer B.Cu) (width 0))
  (fp_poly (pts (xy -0.55 1.7) (xy -1.05 1.7) (xy -1.05 1.2) (xy -0.55 1.2)) (layer B.Cu) (width 0))
  (pad 1 smd rect (at -0.8 -0.5) (size 0.5 1) (layers B.Cu B.Mask))
  (pad 2 smd rect (at 0 -0.5) (size 0.5 1) (layers B.Cu B.Mask))
  (pad 3 smd rect (at 0.8 -0.5) (size 0.5 1) (layers B.Cu B.Mask))
  (pad "" np_thru_hole oval (at 0 0.6 90) (size 1.2 4) (drill oval 1.2 4) (layers *.Cu *.Mask))
)
