(module TOF_ANGLE_PAD (layer F.Cu) (tedit 61DFC930)
  (fp_text reference "" (at -0.05 -0.8) (layer Eco1.User) hide
    (effects (font (size 1 1) (thickness 0.15)))
  )
  (fp_text value "" (at -0.05 -0.8) (layer Eco1.User) hide
    (effects (font (size 1 1) (thickness 0.15)))
  )
  (fp_poly (pts (xy 1.05 -0.5) (xy 0.55 -0.5) (xy 0.55 -1) (xy 1.05 -1)) (layer F.Cu) (width 0))
  (fp_poly (pts (xy 1.05 -0.5) (xy 0.55 -0.5) (xy 0.55 -1) (xy 1.05 -1)) (layer F.Mask) (width 0))
  (fp_poly (pts (xy 0.25 -0.5) (xy -0.25 -0.5) (xy -0.25 -1) (xy 0.25 -1)) (layer F.Mask) (width 0))
  (fp_poly (pts (xy 0.25 -0.5) (xy -0.25 -0.5) (xy -0.25 -1) (xy 0.25 -1)) (layer F.Cu) (width 0))
  (fp_poly (pts (xy -0.55 -0.5) (xy -1.05 -0.5) (xy -1.05 -1) (xy -0.55 -1)) (layer F.Mask) (width 0))
  (fp_poly (pts (xy -0.55 -0.5) (xy -1.05 -0.5) (xy -1.05 -1) (xy -0.55 -1)) (layer F.Cu) (width 0))
  (pad 3 smd rect (at 0.8 -0.5) (size 0.5 1) (layers B.Cu B.Mask))
  (pad 2 smd rect (at 0 -0.5) (size 0.5 1) (layers B.Cu B.Mask))
  (pad 1 smd rect (at -0.8 -0.5) (size 0.5 1) (layers B.Cu B.Mask))
)
