ISO-10303-21;
HEADER;
FILE_DESCRIPTION( ( 'STEP AP203' ), '1' );
FILE_NAME( 'e:/temp/worker_113/temp/exporttempdir_3260_1610_EUDIF/format_0/SSW-102-01-TM-S.stp', '2021-11-10T10:08:58', ( 'License CC BY-ND 4.0' ), ( 'CADENAS' ), ' ', 'PARTsolutions', ' ' );
FILE_SCHEMA( ( 'CONFIG_CONTROL_DESIGN' ) );
ENDSEC;
DATA;
#1 = DESIGN_CONTEXT( '', #55, 'design' );
#2 = APPLICATION_PROTOCOL_DEFINITION( 'international standard', 'config_control_design', 1994, #55 );
#3 = PRODUCT_CATEGORY_RELATIONSHIP( 'NONE', 'NONE', #56, #57 );
#4 = DATE_AND_TIME( #58, #59 );
#5 = DATE_TIME_ROLE( 'creation_date' );
#6 = DATE_TIME_ROLE( 'classification_date' );
#7 = PERSON_AND_ORGANIZATION_ROLE( 'creator' );
#8 = PERSON_AND_ORGANIZATION_ROLE( 'design_supplier' );
#9 = PERSON_AND_ORGANIZATION_ROLE( 'classification_officer' );
#10 = PERSON_AND_ORGANIZATION_ROLE( 'design_owner' );
#11 = APPROVAL_PERSON_ORGANIZATION( #60, #61, #62 );
#12 = APPROVAL_DATE_TIME( #4, #61 );
#13 = CC_DESIGN_APPROVAL( #61, ( #63, #64, #65 ) );
#14 = CC_DESIGN_DATE_AND_TIME_ASSIGNMENT( #4, #5, ( #65 ) );
#15 = CC_DESIGN_DATE_AND_TIME_ASSIGNMENT( #4, #6, ( #63 ) );
#16 = CC_DESIGN_PERSON_AND_ORGANIZATION_ASSIGNMENT( #60, #10, ( #66 ) );
#17 = CC_DESIGN_PERSON_AND_ORGANIZATION_ASSIGNMENT( #60, #7, ( #65 ) );
#18 = CC_DESIGN_PERSON_AND_ORGANIZATION_ASSIGNMENT( #60, #7, ( #64 ) );
#19 = CC_DESIGN_PERSON_AND_ORGANIZATION_ASSIGNMENT( #60, #8, ( #64 ) );
#20 = CC_DESIGN_SECURITY_CLASSIFICATION( #63, ( #64 ) );
#21 = CC_DESIGN_PERSON_AND_ORGANIZATION_ASSIGNMENT( #60, #9, ( #63 ) );
#22 = SHAPE_DEFINITION_REPRESENTATION( #67, #68 );
#23 = PRODUCT_CATEGORY_RELATIONSHIP( 'NONE', 'NONE', #56, #69 );
#24 = DATE_AND_TIME( #70, #71 );
#25 = APPROVAL_DATE_TIME( #24, #61 );
#26 = CC_DESIGN_APPROVAL( #61, ( #63, #72, #73 ) );
#27 = CC_DESIGN_DATE_AND_TIME_ASSIGNMENT( #24, #5, ( #73 ) );
#28 = CC_DESIGN_DATE_AND_TIME_ASSIGNMENT( #24, #6, ( #63 ) );
#29 = CC_DESIGN_PERSON_AND_ORGANIZATION_ASSIGNMENT( #60, #10, ( #74 ) );
#30 = CC_DESIGN_PERSON_AND_ORGANIZATION_ASSIGNMENT( #60, #7, ( #73 ) );
#31 = CC_DESIGN_PERSON_AND_ORGANIZATION_ASSIGNMENT( #60, #7, ( #72 ) );
#32 = CC_DESIGN_PERSON_AND_ORGANIZATION_ASSIGNMENT( #60, #8, ( #72 ) );
#33 = CC_DESIGN_SECURITY_CLASSIFICATION( #63, ( #72 ) );
#34 = CONTEXT_DEPENDENT_SHAPE_REPRESENTATION( #75, #76 );
#35 = SHAPE_DEFINITION_REPRESENTATION( #77, #78 );
#36 = SHAPE_REPRESENTATION_RELATIONSHIP( 'NONE', 'NONE', #78, #79 );
#37 = PRODUCT_CATEGORY_RELATIONSHIP( 'NONE', 'NONE', #56, #80 );
#38 = DATE_AND_TIME( #81, #82 );
#39 = APPROVAL_DATE_TIME( #38, #61 );
#40 = CC_DESIGN_APPROVAL( #61, ( #63, #83, #84 ) );
#41 = CC_DESIGN_DATE_AND_TIME_ASSIGNMENT( #38, #5, ( #84 ) );
#42 = CC_DESIGN_DATE_AND_TIME_ASSIGNMENT( #38, #6, ( #63 ) );
#43 = CC_DESIGN_PERSON_AND_ORGANIZATION_ASSIGNMENT( #60, #10, ( #85 ) );
#44 = CC_DESIGN_PERSON_AND_ORGANIZATION_ASSIGNMENT( #60, #7, ( #84 ) );
#45 = CC_DESIGN_PERSON_AND_ORGANIZATION_ASSIGNMENT( #60, #7, ( #83 ) );
#46 = CC_DESIGN_PERSON_AND_ORGANIZATION_ASSIGNMENT( #60, #8, ( #83 ) );
#47 = CC_DESIGN_SECURITY_CLASSIFICATION( #63, ( #83 ) );
#48 = CONTEXT_DEPENDENT_SHAPE_REPRESENTATION( #86, #87 );
#49 = SHAPE_DEFINITION_REPRESENTATION( #88, #89 );
#50 = SHAPE_REPRESENTATION_RELATIONSHIP( 'NONE', 'NONE', #89, #90 );
#51 =  ( GEOMETRIC_REPRESENTATION_CONTEXT( 3 )GLOBAL_UNCERTAINTY_ASSIGNED_CONTEXT( ( #93 ) )GLOBAL_UNIT_ASSIGNED_CONTEXT( ( #95, #96, #97 ) )REPRESENTATION_CONTEXT( 'NONE', 'WORKSPACE' ) );
#55 = APPLICATION_CONTEXT( 'configuration controlled 3D designs of mechanical parts and assemblies' );
#56 = PRODUCT_CATEGORY( 'part', 'NONE' );
#57 = PRODUCT_RELATED_PRODUCT_CATEGORY( 'detail', ' ', ( #66 ) );
#58 = CALENDAR_DATE( 2021, 10, 10 );
#59 = LOCAL_TIME( 11, 8, 58.0000000000000, #99 );
#60 = PERSON_AND_ORGANIZATION( #100, #101 );
#61 = APPROVAL( #102, 'SOLID MODEL' );
#62 = APPROVAL_ROLE( 'APPROVED' );
#63 = SECURITY_CLASSIFICATION( '', '', #103 );
#64 = PRODUCT_DEFINITION_FORMATION_WITH_SPECIFIED_SOURCE( ' ', 'NONE', #66, .NOT_KNOWN. );
#65 = PRODUCT_DEFINITION( 'NONE', 'NONE', #64, #1 );
#66 = PRODUCT( 'SSW-102-01-TM-S', 'SSW-102-01-TM-S', 'PART-SSW-102-01-TM-S-DESC', ( #104 ) );
#67 = PRODUCT_DEFINITION_SHAPE( 'NONE', 'NONE', #65 );
#68 = SHAPE_REPRESENTATION( 'SSW-102-01-TM-S', ( #105, #106, #107 ), #108 );
#69 = PRODUCT_RELATED_PRODUCT_CATEGORY( 'detail', ' ', ( #74 ) );
#70 = CALENDAR_DATE( 2021, 10, 10 );
#71 = LOCAL_TIME( 11, 8, 58.0000000000000, #109 );
#72 = PRODUCT_DEFINITION_FORMATION_WITH_SPECIFIED_SOURCE( ' ', 'NONE', #74, .NOT_KNOWN. );
#73 = PRODUCT_DEFINITION( '_T1SSW-102-01-TM-S', '_T1SSW-102-01-TM-S', #72, #1 );
#74 = PRODUCT( '_T1SSW-102-01-TM-S', '_T1SSW-102-01-TM-S', 'PART-_T1SSW-102-01-TM-S-DESC', ( #104 ) );
#75 = ( REPRESENTATION_RELATIONSHIP( '', '', #78, #68 )REPRESENTATION_RELATIONSHIP_WITH_TRANSFORMATION( #112 )SHAPE_REPRESENTATION_RELATIONSHIP(  ) );
#76 = PRODUCT_DEFINITION_SHAPE( 'NAUO-PROD-DEF', 'NAUO-PROD-DEF', #114 );
#77 = PRODUCT_DEFINITION_SHAPE( 'NONE', 'NONE', #73 );
#78 = SHAPE_REPRESENTATION( '_T1SSW-102-01-TM-S', ( #105 ), #108 );
#79 = ADVANCED_BREP_SHAPE_REPRESENTATION( '_T1SSW-102-01-TM-S', ( #115 ), #51 );
#80 = PRODUCT_RELATED_PRODUCT_CATEGORY( 'detail', ' ', ( #85 ) );
#81 = CALENDAR_DATE( 2021, 10, 10 );
#82 = LOCAL_TIME( 11, 8, 58.0000000000000, #116 );
#83 = PRODUCT_DEFINITION_FORMATION_WITH_SPECIFIED_SOURCE( ' ', 'NONE', #85, .NOT_KNOWN. );
#84 = PRODUCT_DEFINITION( '_P2SSW-102-01-TM-S', '_P2SSW-102-01-TM-S', #83, #1 );
#85 = PRODUCT( '_P2SSW-102-01-TM-S', '_P2SSW-102-01-TM-S', 'PART-_P2SSW-102-01-TM-S-DESC', ( #104 ) );
#86 = ( REPRESENTATION_RELATIONSHIP( '', '', #89, #68 )REPRESENTATION_RELATIONSHIP_WITH_TRANSFORMATION( #119 )SHAPE_REPRESENTATION_RELATIONSHIP(  ) );
#87 = PRODUCT_DEFINITION_SHAPE( 'NAUO-PROD-DEF', 'NAUO-PROD-DEF', #121 );
#88 = PRODUCT_DEFINITION_SHAPE( 'NONE', 'NONE', #84 );
#89 = SHAPE_REPRESENTATION( '_P2SSW-102-01-TM-S', ( #105 ), #108 );
#90 = ADVANCED_BREP_SHAPE_REPRESENTATION( '_P2SSW-102-01-TM-S', ( #122 ), #51 );
#93 = UNCERTAINTY_MEASURE_WITH_UNIT( LENGTH_MEASURE( 3.93701000000000E-05 ), #95, '', '' );
#95 =  ( CONVERSION_BASED_UNIT( 'INCH', #125 )LENGTH_UNIT(  )NAMED_UNIT( #128 ) );
#96 =  ( NAMED_UNIT( #130 )PLANE_ANGLE_UNIT(  )SI_UNIT( $, .RADIAN. ) );
#97 =  ( NAMED_UNIT( #130 )SI_UNIT( $, .STERADIAN. )SOLID_ANGLE_UNIT(  ) );
#99 = COORDINATED_UNIVERSAL_TIME_OFFSET( 1, 0, .AHEAD. );
#100 = PERSON( '', 'UNSPECIFIED', $, $, $, $ );
#101 = ORGANIZATION( 'UNSPECIFIED', 'UNSPECIFIED', 'UNSPECIFIED' );
#102 = APPROVAL_STATUS( 'approved' );
#103 = SECURITY_CLASSIFICATION_LEVEL( 'unclassified' );
#104 = MECHANICAL_CONTEXT( '', #55, 'mechanical' );
#105 = AXIS2_PLACEMENT_3D( '', #136, #137, #138 );
#106 = AXIS2_PLACEMENT_3D( '', #139, #140, #141 );
#107 = AXIS2_PLACEMENT_3D( '', #142, #143, #144 );
#108 =  ( GEOMETRIC_REPRESENTATION_CONTEXT( 3 )GLOBAL_UNCERTAINTY_ASSIGNED_CONTEXT( ( #147 ) )GLOBAL_UNIT_ASSIGNED_CONTEXT( ( #149, #150, #151 ) )REPRESENTATION_CONTEXT( 'NONE', 'WORKSPACE' ) );
#109 = COORDINATED_UNIVERSAL_TIME_OFFSET( 1, 0, .AHEAD. );
#112 = ITEM_DEFINED_TRANSFORMATION( '', '', #105, #106 );
#114 = NEXT_ASSEMBLY_USAGE_OCCURRENCE( 'NAUO1', '_T1SSW-102-01-TM-S', '_T1SSW-102-01-TM-S', #65, #73, $ );
#115 = MANIFOLD_SOLID_BREP( '_T1SSW-102-01-TM-S', #153 );
#116 = COORDINATED_UNIVERSAL_TIME_OFFSET( 1, 0, .AHEAD. );
#119 = ITEM_DEFINED_TRANSFORMATION( '', '', #105, #107 );
#121 = NEXT_ASSEMBLY_USAGE_OCCURRENCE( 'NAUO2', '_P2SSW-102-01-TM-S', '_P2SSW-102-01-TM-S', #65, #84, $ );
#122 = MANIFOLD_SOLID_BREP( '_P2SSW-102-01-TM-S', #154 );
#125 = LENGTH_MEASURE_WITH_UNIT( LENGTH_MEASURE( 25.4000000000000 ), #155 );
#128 = DIMENSIONAL_EXPONENTS( 1.00000000000000, 0.000000000000000, 0.000000000000000, 0.000000000000000, 0.000000000000000, 0.000000000000000, 0.000000000000000 );
#130 = DIMENSIONAL_EXPONENTS( 0.000000000000000, 0.000000000000000, 0.000000000000000, 0.000000000000000, 0.000000000000000, 0.000000000000000, 0.000000000000000 );
#136 = CARTESIAN_POINT( '', ( 0.000000000000000, 0.000000000000000, 0.000000000000000 ) );
#137 = DIRECTION( '', ( 0.000000000000000, 0.000000000000000, 1.00000000000000 ) );
#138 = DIRECTION( '', ( 1.00000000000000, 0.000000000000000, 0.000000000000000 ) );
#139 = CARTESIAN_POINT( '', ( 0.000000000000000, 0.000000000000000, 0.000000000000000 ) );
#140 = DIRECTION( '', ( 0.000000000000000, 0.000000000000000, 1.00000000000000 ) );
#141 = DIRECTION( '', ( 1.00000000000000, 0.000000000000000, 0.000000000000000 ) );
#142 = CARTESIAN_POINT( '', ( 0.000000000000000, -0.104000000000000, -1.27363267111325E-17 ) );
#143 = DIRECTION( '', ( 0.000000000000000, 0.000000000000000, 1.00000000000000 ) );
#144 = DIRECTION( '', ( 1.00000000000000, 0.000000000000000, 0.000000000000000 ) );
#147 = UNCERTAINTY_MEASURE_WITH_UNIT( LENGTH_MEASURE( 3.93701000000000E-05 ), #149, '', '' );
#149 =  ( CONVERSION_BASED_UNIT( 'INCH', #158 )LENGTH_UNIT(  )NAMED_UNIT( #161 ) );
#150 =  ( NAMED_UNIT( #163 )PLANE_ANGLE_UNIT(  )SI_UNIT( $, .RADIAN. ) );
#151 =  ( NAMED_UNIT( #163 )SI_UNIT( $, .STERADIAN. )SOLID_ANGLE_UNIT(  ) );
#153 = CLOSED_SHELL( '', ( #169, #170, #171, #172, #173, #174, #175, #176, #177, #178, #179, #180, #181, #182, #183, #184, #185, #186, #187, #188, #189, #190 ) );
#154 = CLOSED_SHELL( '', ( #191, #192, #193, #194, #195, #196, #197, #198, #199, #200, #201, #202, #203, #204, #205, #206, #207, #208, #209, #210 ) );
#155 =  ( LENGTH_UNIT(  )NAMED_UNIT( #128 )SI_UNIT( .MILLI., .METRE. ) );
#158 = LENGTH_MEASURE_WITH_UNIT( LENGTH_MEASURE( 25.4000000000000 ), #212 );
#161 = DIMENSIONAL_EXPONENTS( 1.00000000000000, 0.000000000000000, 0.000000000000000, 0.000000000000000, 0.000000000000000, 0.000000000000000, 0.000000000000000 );
#163 = DIMENSIONAL_EXPONENTS( 0.000000000000000, 0.000000000000000, 0.000000000000000, 0.000000000000000, 0.000000000000000, 0.000000000000000, 0.000000000000000 );
#169 = ADVANCED_FACE( '', ( #213 ), #214, .T. );
#170 = ADVANCED_FACE( '', ( #215, #216 ), #217, .T. );
#171 = ADVANCED_FACE( '', ( #218 ), #219, .T. );
#172 = ADVANCED_FACE( '', ( #220 ), #221, .F. );
#173 = ADVANCED_FACE( '', ( #222 ), #223, .F. );
#174 = ADVANCED_FACE( '', ( #224 ), #225, .T. );
#175 = ADVANCED_FACE( '', ( #226 ), #227, .F. );
#176 = ADVANCED_FACE( '', ( #228 ), #229, .F. );
#177 = ADVANCED_FACE( '', ( #230 ), #231, .F. );
#178 = ADVANCED_FACE( '', ( #232 ), #233, .F. );
#179 = ADVANCED_FACE( '', ( #234 ), #235, .F. );
#180 = ADVANCED_FACE( '', ( #236 ), #237, .T. );
#181 = ADVANCED_FACE( '', ( #238 ), #239, .T. );
#182 = ADVANCED_FACE( '', ( #240 ), #241, .T. );
#183 = ADVANCED_FACE( '', ( #242 ), #243, .T. );
#184 = ADVANCED_FACE( '', ( #244 ), #245, .T. );
#185 = ADVANCED_FACE( '', ( #246, #247 ), #248, .T. );
#186 = ADVANCED_FACE( '', ( #249 ), #250, .T. );
#187 = ADVANCED_FACE( '', ( #251 ), #252, .T. );
#188 = ADVANCED_FACE( '', ( #253, #254, #255 ), #256, .T. );
#189 = ADVANCED_FACE( '', ( #257 ), #258, .T. );
#190 = ADVANCED_FACE( '', ( #259 ), #260, .T. );
#191 = ADVANCED_FACE( '', ( #261 ), #262, .T. );
#192 = ADVANCED_FACE( '', ( #263 ), #264, .T. );
#193 = ADVANCED_FACE( '', ( #265 ), #266, .T. );
#194 = ADVANCED_FACE( '', ( #267 ), #268, .F. );
#195 = ADVANCED_FACE( '', ( #269 ), #270, .F. );
#196 = ADVANCED_FACE( '', ( #271 ), #272, .F. );
#197 = ADVANCED_FACE( '', ( #273 ), #274, .F. );
#198 = ADVANCED_FACE( '', ( #275 ), #276, .F. );
#199 = ADVANCED_FACE( '', ( #277 ), #278, .F. );
#200 = ADVANCED_FACE( '', ( #279 ), #280, .F. );
#201 = ADVANCED_FACE( '', ( #281, #282, #283 ), #284, .F. );
#202 = ADVANCED_FACE( '', ( #285 ), #286, .T. );
#203 = ADVANCED_FACE( '', ( #287 ), #288, .T. );
#204 = ADVANCED_FACE( '', ( #289 ), #290, .F. );
#205 = ADVANCED_FACE( '', ( #291 ), #292, .T. );
#206 = ADVANCED_FACE( '', ( #293 ), #294, .T. );
#207 = ADVANCED_FACE( '', ( #295 ), #296, .T. );
#208 = ADVANCED_FACE( '', ( #297 ), #298, .T. );
#209 = ADVANCED_FACE( '', ( #299 ), #300, .F. );
#210 = ADVANCED_FACE( '', ( #301 ), #302, .F. );
#212 =  ( LENGTH_UNIT(  )NAMED_UNIT( #161 )SI_UNIT( .MILLI., .METRE. ) );
#213 = FACE_OUTER_BOUND( '', #304, .T. );
#214 = PLANE( '', #305 );
#215 = FACE_BOUND( '', #306, .T. );
#216 = FACE_OUTER_BOUND( '', #307, .T. );
#217 = PLANE( '', #308 );
#218 = FACE_OUTER_BOUND( '', #309, .T. );
#219 = PLANE( '', #310 );
#220 = FACE_OUTER_BOUND( '', #311, .T. );
#221 = PLANE( '', #312 );
#222 = FACE_OUTER_BOUND( '', #313, .T. );
#223 = PLANE( '', #314 );
#224 = FACE_OUTER_BOUND( '', #315, .T. );
#225 = PLANE( '', #316 );
#226 = FACE_OUTER_BOUND( '', #317, .T. );
#227 = PLANE( '', #318 );
#228 = FACE_OUTER_BOUND( '', #319, .T. );
#229 = PLANE( '', #320 );
#230 = FACE_OUTER_BOUND( '', #321, .T. );
#231 = PLANE( '', #322 );
#232 = FACE_OUTER_BOUND( '', #323, .T. );
#233 = PLANE( '', #324 );
#234 = FACE_OUTER_BOUND( '', #325, .T. );
#235 = PLANE( '', #326 );
#236 = FACE_OUTER_BOUND( '', #327, .T. );
#237 = PLANE( '', #328 );
#238 = FACE_OUTER_BOUND( '', #329, .T. );
#239 = PLANE( '', #330 );
#240 = FACE_OUTER_BOUND( '', #331, .T. );
#241 = PLANE( '', #332 );
#242 = FACE_OUTER_BOUND( '', #333, .T. );
#243 = PLANE( '', #334 );
#244 = FACE_OUTER_BOUND( '', #335, .T. );
#245 = PLANE( '', #336 );
#246 = FACE_BOUND( '', #337, .T. );
#247 = FACE_OUTER_BOUND( '', #338, .T. );
#248 = PLANE( '', #339 );
#249 = FACE_OUTER_BOUND( '', #340, .T. );
#250 = PLANE( '', #341 );
#251 = FACE_OUTER_BOUND( '', #342, .T. );
#252 = PLANE( '', #343 );
#253 = FACE_BOUND( '', #344, .T. );
#254 = FACE_BOUND( '', #345, .T. );
#255 = FACE_OUTER_BOUND( '', #346, .T. );
#256 = PLANE( '', #347 );
#257 = FACE_OUTER_BOUND( '', #348, .T. );
#258 = PLANE( '', #349 );
#259 = FACE_OUTER_BOUND( '', #350, .T. );
#260 = PLANE( '', #351 );
#261 = FACE_OUTER_BOUND( '', #352, .T. );
#262 = PLANE( '', #353 );
#263 = FACE_OUTER_BOUND( '', #354, .T. );
#264 = PLANE( '', #355 );
#265 = FACE_OUTER_BOUND( '', #356, .T. );
#266 = PLANE( '', #357 );
#267 = FACE_OUTER_BOUND( '', #358, .T. );
#268 = PLANE( '', #359 );
#269 = FACE_OUTER_BOUND( '', #360, .T. );
#270 = PLANE( '', #361 );
#271 = FACE_OUTER_BOUND( '', #362, .T. );
#272 = PLANE( '', #363 );
#273 = FACE_OUTER_BOUND( '', #364, .T. );
#274 = PLANE( '', #365 );
#275 = FACE_OUTER_BOUND( '', #366, .T. );
#276 = PLANE( '', #367 );
#277 = FACE_OUTER_BOUND( '', #368, .T. );
#278 = PLANE( '', #369 );
#279 = FACE_OUTER_BOUND( '', #370, .T. );
#280 = PLANE( '', #371 );
#281 = FACE_BOUND( '', #372, .T. );
#282 = FACE_BOUND( '', #373, .T. );
#283 = FACE_OUTER_BOUND( '', #374, .T. );
#284 = PLANE( '', #375 );
#285 = FACE_OUTER_BOUND( '', #376, .T. );
#286 = PLANE( '', #377 );
#287 = FACE_OUTER_BOUND( '', #378, .T. );
#288 = PLANE( '', #379 );
#289 = FACE_OUTER_BOUND( '', #380, .T. );
#290 = PLANE( '', #381 );
#291 = FACE_OUTER_BOUND( '', #382, .T. );
#292 = PLANE( '', #383 );
#293 = FACE_OUTER_BOUND( '', #384, .T. );
#294 = PLANE( '', #385 );
#295 = FACE_OUTER_BOUND( '', #386, .T. );
#296 = PLANE( '', #387 );
#297 = FACE_OUTER_BOUND( '', #388, .T. );
#298 = PLANE( '', #389 );
#299 = FACE_OUTER_BOUND( '', #390, .T. );
#300 = PLANE( '', #391 );
#301 = FACE_OUTER_BOUND( '', #392, .T. );
#302 = PLANE( '', #393 );
#304 = EDGE_LOOP( '', ( #394, #395, #396, #397 ) );
#305 = AXIS2_PLACEMENT_3D( '', #398, #399, #400 );
#306 = EDGE_LOOP( '', ( #401, #402, #403, #404 ) );
#307 = EDGE_LOOP( '', ( #405, #406, #407, #408 ) );
#308 = AXIS2_PLACEMENT_3D( '', #409, #410, #411 );
#309 = EDGE_LOOP( '', ( #412, #413, #414, #415 ) );
#310 = AXIS2_PLACEMENT_3D( '', #416, #417, #418 );
#311 = EDGE_LOOP( '', ( #419, #420, #421, #422, #423, #424, #425, #426, #427, #428, #429, #430 ) );
#312 = AXIS2_PLACEMENT_3D( '', #431, #432, #433 );
#313 = EDGE_LOOP( '', ( #434, #435, #436, #437, #438, #439, #440, #441, #442, #443, #444, #445 ) );
#314 = AXIS2_PLACEMENT_3D( '', #446, #447, #448 );
#315 = EDGE_LOOP( '', ( #449, #450, #451, #452 ) );
#316 = AXIS2_PLACEMENT_3D( '', #453, #454, #455 );
#317 = EDGE_LOOP( '', ( #456, #457, #458, #459 ) );
#318 = AXIS2_PLACEMENT_3D( '', #460, #461, #462 );
#319 = EDGE_LOOP( '', ( #463, #464, #465, #466 ) );
#320 = AXIS2_PLACEMENT_3D( '', #467, #468, #469 );
#321 = EDGE_LOOP( '', ( #470, #471, #472, #473 ) );
#322 = AXIS2_PLACEMENT_3D( '', #474, #475, #476 );
#323 = EDGE_LOOP( '', ( #477, #478, #479, #480 ) );
#324 = AXIS2_PLACEMENT_3D( '', #481, #482, #483 );
#325 = EDGE_LOOP( '', ( #484, #485, #486, #487 ) );
#326 = AXIS2_PLACEMENT_3D( '', #488, #489, #490 );
#327 = EDGE_LOOP( '', ( #491, #492, #493, #494 ) );
#328 = AXIS2_PLACEMENT_3D( '', #495, #496, #497 );
#329 = EDGE_LOOP( '', ( #498, #499, #500, #501 ) );
#330 = AXIS2_PLACEMENT_3D( '', #502, #503, #504 );
#331 = EDGE_LOOP( '', ( #505, #506, #507, #508 ) );
#332 = AXIS2_PLACEMENT_3D( '', #509, #510, #511 );
#333 = EDGE_LOOP( '', ( #512, #513, #514, #515 ) );
#334 = AXIS2_PLACEMENT_3D( '', #516, #517, #518 );
#335 = EDGE_LOOP( '', ( #519, #520, #521, #522 ) );
#336 = AXIS2_PLACEMENT_3D( '', #523, #524, #525 );
#337 = EDGE_LOOP( '', ( #526, #527, #528, #529 ) );
#338 = EDGE_LOOP( '', ( #530, #531, #532, #533 ) );
#339 = AXIS2_PLACEMENT_3D( '', #534, #535, #536 );
#340 = EDGE_LOOP( '', ( #537, #538, #539, #540 ) );
#341 = AXIS2_PLACEMENT_3D( '', #541, #542, #543 );
#342 = EDGE_LOOP( '', ( #544, #545, #546, #547 ) );
#343 = AXIS2_PLACEMENT_3D( '', #548, #549, #550 );
#344 = EDGE_LOOP( '', ( #551, #552, #553, #554 ) );
#345 = EDGE_LOOP( '', ( #555, #556, #557, #558 ) );
#346 = EDGE_LOOP( '', ( #559, #560, #561, #562 ) );
#347 = AXIS2_PLACEMENT_3D( '', #563, #564, #565 );
#348 = EDGE_LOOP( '', ( #566, #567, #568, #569 ) );
#349 = AXIS2_PLACEMENT_3D( '', #570, #571, #572 );
#350 = EDGE_LOOP( '', ( #573, #574, #575, #576 ) );
#351 = AXIS2_PLACEMENT_3D( '', #577, #578, #579 );
#352 = EDGE_LOOP( '', ( #580, #581, #582, #583 ) );
#353 = AXIS2_PLACEMENT_3D( '', #584, #585, #586 );
#354 = EDGE_LOOP( '', ( #587, #588, #589, #590 ) );
#355 = AXIS2_PLACEMENT_3D( '', #591, #592, #593 );
#356 = EDGE_LOOP( '', ( #594, #595, #596, #597 ) );
#357 = AXIS2_PLACEMENT_3D( '', #598, #599, #600 );
#358 = EDGE_LOOP( '', ( #601, #602, #603, #604, #605, #606 ) );
#359 = AXIS2_PLACEMENT_3D( '', #607, #608, #609 );
#360 = EDGE_LOOP( '', ( #610, #611, #612, #613, #614, #615 ) );
#361 = AXIS2_PLACEMENT_3D( '', #616, #617, #618 );
#362 = EDGE_LOOP( '', ( #619, #620, #621, #622 ) );
#363 = AXIS2_PLACEMENT_3D( '', #623, #624, #625 );
#364 = EDGE_LOOP( '', ( #626, #627, #628, #629, #630, #631 ) );
#365 = AXIS2_PLACEMENT_3D( '', #632, #633, #634 );
#366 = EDGE_LOOP( '', ( #635, #636, #637, #638 ) );
#367 = AXIS2_PLACEMENT_3D( '', #639, #640, #641 );
#368 = EDGE_LOOP( '', ( #642, #643, #644, #645 ) );
#369 = AXIS2_PLACEMENT_3D( '', #646, #647, #648 );
#370 = EDGE_LOOP( '', ( #649, #650, #651, #652 ) );
#371 = AXIS2_PLACEMENT_3D( '', #653, #654, #655 );
#372 = EDGE_LOOP( '', ( #656, #657, #658, #659 ) );
#373 = EDGE_LOOP( '', ( #660, #661, #662, #663 ) );
#374 = EDGE_LOOP( '', ( #664, #665, #666, #667 ) );
#375 = AXIS2_PLACEMENT_3D( '', #668, #669, #670 );
#376 = EDGE_LOOP( '', ( #671, #672, #673, #674 ) );
#377 = AXIS2_PLACEMENT_3D( '', #675, #676, #677 );
#378 = EDGE_LOOP( '', ( #678, #679, #680, #681 ) );
#379 = AXIS2_PLACEMENT_3D( '', #682, #683, #684 );
#380 = EDGE_LOOP( '', ( #685, #686, #687, #688 ) );
#381 = AXIS2_PLACEMENT_3D( '', #689, #690, #691 );
#382 = EDGE_LOOP( '', ( #692, #693, #694, #695 ) );
#383 = AXIS2_PLACEMENT_3D( '', #696, #697, #698 );
#384 = EDGE_LOOP( '', ( #699, #700, #701, #702 ) );
#385 = AXIS2_PLACEMENT_3D( '', #703, #704, #705 );
#386 = EDGE_LOOP( '', ( #706, #707, #708, #709 ) );
#387 = AXIS2_PLACEMENT_3D( '', #710, #711, #712 );
#388 = EDGE_LOOP( '', ( #713, #714, #715, #716 ) );
#389 = AXIS2_PLACEMENT_3D( '', #717, #718, #719 );
#390 = EDGE_LOOP( '', ( #720, #721, #722, #723 ) );
#391 = AXIS2_PLACEMENT_3D( '', #724, #725, #726 );
#392 = EDGE_LOOP( '', ( #727, #728, #729, #730, #731, #732 ) );
#393 = AXIS2_PLACEMENT_3D( '', #733, #734, #735 );
#394 = ORIENTED_EDGE( '', *, *, #736, .T. );
#395 = ORIENTED_EDGE( '', *, *, #737, .F. );
#396 = ORIENTED_EDGE( '', *, *, #738, .T. );
#397 = ORIENTED_EDGE( '', *, *, #739, .T. );
#398 = CARTESIAN_POINT( '', ( -0.0900000000000000, 0.0200000000000000, 0.200000000000000 ) );
#399 = DIRECTION( '', ( 1.00000000000000, 0.000000000000000, -0.000000000000000 ) );
#400 = DIRECTION( '', ( -0.000000000000000, 0.000000000000000, -1.00000000000000 ) );
#401 = ORIENTED_EDGE( '', *, *, #740, .F. );
#402 = ORIENTED_EDGE( '', *, *, #741, .F. );
#403 = ORIENTED_EDGE( '', *, *, #742, .F. );
#404 = ORIENTED_EDGE( '', *, *, #743, .F. );
#405 = ORIENTED_EDGE( '', *, *, #744, .T. );
#406 = ORIENTED_EDGE( '', *, *, #745, .F. );
#407 = ORIENTED_EDGE( '', *, *, #746, .T. );
#408 = ORIENTED_EDGE( '', *, *, #737, .T. );
#409 = CARTESIAN_POINT( '', ( -0.0100000000000000, 0.0200000000000000, 0.200000000000000 ) );
#410 = DIRECTION( '', ( 5.33564061262551E-17, -1.00000000000000, 0.000000000000000 ) );
#411 = DIRECTION( '', ( 1.00000000000000, 5.33564061262551E-17, 0.000000000000000 ) );
#412 = ORIENTED_EDGE( '', *, *, #747, .T. );
#413 = ORIENTED_EDGE( '', *, *, #748, .T. );
#414 = ORIENTED_EDGE( '', *, *, #749, .T. );
#415 = ORIENTED_EDGE( '', *, *, #745, .T. );
#416 = CARTESIAN_POINT( '', ( -0.0100000000000000, -0.0500000000000000, 0.200000000000000 ) );
#417 = DIRECTION( '', ( -1.00000000000000, 0.000000000000000, 0.000000000000000 ) );
#418 = DIRECTION( '', ( 0.000000000000000, 0.000000000000000, 1.00000000000000 ) );
#419 = ORIENTED_EDGE( '', *, *, #750, .F. );
#420 = ORIENTED_EDGE( '', *, *, #751, .F. );
#421 = ORIENTED_EDGE( '', *, *, #752, .F. );
#422 = ORIENTED_EDGE( '', *, *, #753, .T. );
#423 = ORIENTED_EDGE( '', *, *, #747, .F. );
#424 = ORIENTED_EDGE( '', *, *, #744, .F. );
#425 = ORIENTED_EDGE( '', *, *, #736, .F. );
#426 = ORIENTED_EDGE( '', *, *, #754, .T. );
#427 = ORIENTED_EDGE( '', *, *, #755, .F. );
#428 = ORIENTED_EDGE( '', *, *, #756, .F. );
#429 = ORIENTED_EDGE( '', *, *, #757, .T. );
#430 = ORIENTED_EDGE( '', *, *, #758, .T. );
#431 = CARTESIAN_POINT( '', ( 0.110000000000000, 0.335000000000000, -0.0475000000000000 ) );
#432 = DIRECTION( '', ( 0.000000000000000, -0.000000000000000, 1.00000000000000 ) );
#433 = DIRECTION( '', ( 1.00000000000000, 0.000000000000000, -0.000000000000000 ) );
#434 = ORIENTED_EDGE( '', *, *, #759, .F. );
#435 = ORIENTED_EDGE( '', *, *, #760, .T. );
#436 = ORIENTED_EDGE( '', *, *, #761, .F. );
#437 = ORIENTED_EDGE( '', *, *, #762, .F. );
#438 = ORIENTED_EDGE( '', *, *, #763, .T. );
#439 = ORIENTED_EDGE( '', *, *, #764, .T. );
#440 = ORIENTED_EDGE( '', *, *, #738, .F. );
#441 = ORIENTED_EDGE( '', *, *, #746, .F. );
#442 = ORIENTED_EDGE( '', *, *, #749, .F. );
#443 = ORIENTED_EDGE( '', *, *, #765, .T. );
#444 = ORIENTED_EDGE( '', *, *, #766, .F. );
#445 = ORIENTED_EDGE( '', *, *, #767, .F. );
#446 = CARTESIAN_POINT( '', ( -0.110000000000000, 0.335000000000000, 0.0475000000000000 ) );
#447 = DIRECTION( '', ( 0.000000000000000, 0.000000000000000, -1.00000000000000 ) );
#448 = DIRECTION( '', ( -1.00000000000000, 0.000000000000000, 0.000000000000000 ) );
#449 = ORIENTED_EDGE( '', *, *, #768, .T. );
#450 = ORIENTED_EDGE( '', *, *, #769, .T. );
#451 = ORIENTED_EDGE( '', *, *, #770, .F. );
#452 = ORIENTED_EDGE( '', *, *, #771, .T. );
#453 = CARTESIAN_POINT( '', ( 0.0655000000000000, 0.335000000000000, -0.0155000000000000 ) );
#454 = DIRECTION( '', ( 0.000000000000000, -0.000000000000000, 1.00000000000000 ) );
#455 = DIRECTION( '', ( 1.00000000000000, 0.000000000000000, -0.000000000000000 ) );
#456 = ORIENTED_EDGE( '', *, *, #772, .T. );
#457 = ORIENTED_EDGE( '', *, *, #763, .F. );
#458 = ORIENTED_EDGE( '', *, *, #773, .F. );
#459 = ORIENTED_EDGE( '', *, *, #755, .T. );
#460 = CARTESIAN_POINT( '', ( -0.110000000000000, 0.335000000000000, -0.0475000000000000 ) );
#461 = DIRECTION( '', ( 1.00000000000000, 0.000000000000000, 0.000000000000000 ) );
#462 = DIRECTION( '', ( 0.000000000000000, 0.000000000000000, -1.00000000000000 ) );
#463 = ORIENTED_EDGE( '', *, *, #774, .T. );
#464 = ORIENTED_EDGE( '', *, *, #757, .F. );
#465 = ORIENTED_EDGE( '', *, *, #775, .F. );
#466 = ORIENTED_EDGE( '', *, *, #761, .T. );
#467 = CARTESIAN_POINT( '', ( 0.110000000000000, 0.335000000000000, 0.0475000000000000 ) );
#468 = DIRECTION( '', ( -1.00000000000000, 0.000000000000000, 0.000000000000000 ) );
#469 = DIRECTION( '', ( 0.000000000000000, 0.000000000000000, 1.00000000000000 ) );
#470 = ORIENTED_EDGE( '', *, *, #776, .F. );
#471 = ORIENTED_EDGE( '', *, *, #765, .F. );
#472 = ORIENTED_EDGE( '', *, *, #748, .F. );
#473 = ORIENTED_EDGE( '', *, *, #753, .F. );
#474 = CARTESIAN_POINT( '', ( 0.000000000000000, 0.000000000000000, -0.000000000000000 ) );
#475 = DIRECTION( '', ( 0.000000000000000, 1.00000000000000, -0.000000000000000 ) );
#476 = DIRECTION( '', ( 0.000000000000000, 0.000000000000000, 1.00000000000000 ) );
#477 = ORIENTED_EDGE( '', *, *, #777, .F. );
#478 = ORIENTED_EDGE( '', *, *, #758, .F. );
#479 = ORIENTED_EDGE( '', *, *, #774, .F. );
#480 = ORIENTED_EDGE( '', *, *, #760, .F. );
#481 = CARTESIAN_POINT( '', ( 0.000000000000000, 0.000000000000000, -0.000000000000000 ) );
#482 = DIRECTION( '', ( 0.000000000000000, 1.00000000000000, -0.000000000000000 ) );
#483 = DIRECTION( '', ( 0.000000000000000, 0.000000000000000, 1.00000000000000 ) );
#484 = ORIENTED_EDGE( '', *, *, #739, .F. );
#485 = ORIENTED_EDGE( '', *, *, #764, .F. );
#486 = ORIENTED_EDGE( '', *, *, #772, .F. );
#487 = ORIENTED_EDGE( '', *, *, #754, .F. );
#488 = CARTESIAN_POINT( '', ( 0.000000000000000, 0.000000000000000, -0.000000000000000 ) );
#489 = DIRECTION( '', ( 0.000000000000000, 1.00000000000000, -0.000000000000000 ) );
#490 = DIRECTION( '', ( 0.000000000000000, 0.000000000000000, 1.00000000000000 ) );
#491 = ORIENTED_EDGE( '', *, *, #778, .T. );
#492 = ORIENTED_EDGE( '', *, *, #740, .T. );
#493 = ORIENTED_EDGE( '', *, *, #779, .F. );
#494 = ORIENTED_EDGE( '', *, *, #780, .T. );
#495 = CARTESIAN_POINT( '', ( -0.0655000000000000, 0.335000000000000, -0.0155000000000000 ) );
#496 = DIRECTION( '', ( 1.00000000000000, 0.000000000000000, 0.000000000000000 ) );
#497 = DIRECTION( '', ( 0.000000000000000, 0.000000000000000, -1.00000000000000 ) );
#498 = ORIENTED_EDGE( '', *, *, #781, .T. );
#499 = ORIENTED_EDGE( '', *, *, #782, .T. );
#500 = ORIENTED_EDGE( '', *, *, #768, .F. );
#501 = ORIENTED_EDGE( '', *, *, #783, .T. );
#502 = CARTESIAN_POINT( '', ( 0.0345000000000000, 0.335000000000000, -0.0155000000000000 ) );
#503 = DIRECTION( '', ( 1.00000000000000, 0.000000000000000, 0.000000000000000 ) );
#504 = DIRECTION( '', ( 0.000000000000000, 0.000000000000000, -1.00000000000000 ) );
#505 = ORIENTED_EDGE( '', *, *, #770, .T. );
#506 = ORIENTED_EDGE( '', *, *, #784, .T. );
#507 = ORIENTED_EDGE( '', *, *, #785, .F. );
#508 = ORIENTED_EDGE( '', *, *, #786, .T. );
#509 = CARTESIAN_POINT( '', ( 0.0655000000000000, 0.335000000000000, 0.0155000000000000 ) );
#510 = DIRECTION( '', ( -1.00000000000000, 0.000000000000000, 0.000000000000000 ) );
#511 = DIRECTION( '', ( 0.000000000000000, 0.000000000000000, 1.00000000000000 ) );
#512 = ORIENTED_EDGE( '', *, *, #785, .T. );
#513 = ORIENTED_EDGE( '', *, *, #787, .T. );
#514 = ORIENTED_EDGE( '', *, *, #781, .F. );
#515 = ORIENTED_EDGE( '', *, *, #788, .T. );
#516 = CARTESIAN_POINT( '', ( 0.0345000000000000, 0.335000000000000, 0.0155000000000000 ) );
#517 = DIRECTION( '', ( 0.000000000000000, 0.000000000000000, -1.00000000000000 ) );
#518 = DIRECTION( '', ( -1.00000000000000, 0.000000000000000, 0.000000000000000 ) );
#519 = ORIENTED_EDGE( '', *, *, #779, .T. );
#520 = ORIENTED_EDGE( '', *, *, #743, .T. );
#521 = ORIENTED_EDGE( '', *, *, #789, .F. );
#522 = ORIENTED_EDGE( '', *, *, #790, .T. );
#523 = CARTESIAN_POINT( '', ( -0.0345000000000000, 0.335000000000000, -0.0155000000000000 ) );
#524 = DIRECTION( '', ( 0.000000000000000, -0.000000000000000, 1.00000000000000 ) );
#525 = DIRECTION( '', ( 1.00000000000000, 0.000000000000000, -0.000000000000000 ) );
#526 = ORIENTED_EDGE( '', *, *, #782, .F. );
#527 = ORIENTED_EDGE( '', *, *, #787, .F. );
#528 = ORIENTED_EDGE( '', *, *, #784, .F. );
#529 = ORIENTED_EDGE( '', *, *, #769, .F. );
#530 = ORIENTED_EDGE( '', *, *, #751, .T. );
#531 = ORIENTED_EDGE( '', *, *, #791, .F. );
#532 = ORIENTED_EDGE( '', *, *, #767, .T. );
#533 = ORIENTED_EDGE( '', *, *, #792, .T. );
#534 = CARTESIAN_POINT( '', ( 0.0900000000000000, 0.0200000000000000, 0.200000000000000 ) );
#535 = DIRECTION( '', ( 5.33564061262551E-17, -1.00000000000000, 0.000000000000000 ) );
#536 = DIRECTION( '', ( 1.00000000000000, 5.33564061262551E-17, 0.000000000000000 ) );
#537 = ORIENTED_EDGE( '', *, *, #750, .T. );
#538 = ORIENTED_EDGE( '', *, *, #777, .T. );
#539 = ORIENTED_EDGE( '', *, *, #759, .T. );
#540 = ORIENTED_EDGE( '', *, *, #791, .T. );
#541 = CARTESIAN_POINT( '', ( 0.0900000000000000, -0.0800000000000000, 0.200000000000000 ) );
#542 = DIRECTION( '', ( -1.00000000000000, 1.70740499604016E-16, 0.000000000000000 ) );
#543 = DIRECTION( '', ( -1.70740499604016E-16, -1.00000000000000, 0.000000000000000 ) );
#544 = ORIENTED_EDGE( '', *, *, #752, .T. );
#545 = ORIENTED_EDGE( '', *, *, #792, .F. );
#546 = ORIENTED_EDGE( '', *, *, #766, .T. );
#547 = ORIENTED_EDGE( '', *, *, #776, .T. );
#548 = CARTESIAN_POINT( '', ( 0.0100000000000000, 0.0200000000000000, 0.200000000000000 ) );
#549 = DIRECTION( '', ( 1.00000000000000, 0.000000000000000, -0.000000000000000 ) );
#550 = DIRECTION( '', ( -0.000000000000000, 0.000000000000000, -1.00000000000000 ) );
#551 = ORIENTED_EDGE( '', *, *, #790, .F. );
#552 = ORIENTED_EDGE( '', *, *, #793, .F. );
#553 = ORIENTED_EDGE( '', *, *, #794, .F. );
#554 = ORIENTED_EDGE( '', *, *, #780, .F. );
#555 = ORIENTED_EDGE( '', *, *, #771, .F. );
#556 = ORIENTED_EDGE( '', *, *, #786, .F. );
#557 = ORIENTED_EDGE( '', *, *, #788, .F. );
#558 = ORIENTED_EDGE( '', *, *, #783, .F. );
#559 = ORIENTED_EDGE( '', *, *, #756, .T. );
#560 = ORIENTED_EDGE( '', *, *, #773, .T. );
#561 = ORIENTED_EDGE( '', *, *, #762, .T. );
#562 = ORIENTED_EDGE( '', *, *, #775, .T. );
#563 = CARTESIAN_POINT( '', ( 0.000000000000000, 0.335000000000000, 0.000000000000000 ) );
#564 = DIRECTION( '', ( 0.000000000000000, 1.00000000000000, -0.000000000000000 ) );
#565 = DIRECTION( '', ( 0.000000000000000, 0.000000000000000, 1.00000000000000 ) );
#566 = ORIENTED_EDGE( '', *, *, #789, .T. );
#567 = ORIENTED_EDGE( '', *, *, #742, .T. );
#568 = ORIENTED_EDGE( '', *, *, #795, .F. );
#569 = ORIENTED_EDGE( '', *, *, #793, .T. );
#570 = CARTESIAN_POINT( '', ( -0.0345000000000000, 0.335000000000000, 0.0155000000000000 ) );
#571 = DIRECTION( '', ( -1.00000000000000, 0.000000000000000, 0.000000000000000 ) );
#572 = DIRECTION( '', ( 0.000000000000000, 0.000000000000000, 1.00000000000000 ) );
#573 = ORIENTED_EDGE( '', *, *, #795, .T. );
#574 = ORIENTED_EDGE( '', *, *, #741, .T. );
#575 = ORIENTED_EDGE( '', *, *, #778, .F. );
#576 = ORIENTED_EDGE( '', *, *, #794, .T. );
#577 = CARTESIAN_POINT( '', ( -0.0655000000000000, 0.335000000000000, 0.0155000000000000 ) );
#578 = DIRECTION( '', ( 0.000000000000000, 0.000000000000000, -1.00000000000000 ) );
#579 = DIRECTION( '', ( -1.00000000000000, 0.000000000000000, 0.000000000000000 ) );
#580 = ORIENTED_EDGE( '', *, *, #796, .T. );
#581 = ORIENTED_EDGE( '', *, *, #797, .T. );
#582 = ORIENTED_EDGE( '', *, *, #798, .T. );
#583 = ORIENTED_EDGE( '', *, *, #799, .F. );
#584 = CARTESIAN_POINT( '', ( -0.0345000000000000, 0.139000000000000, 1.00000000000000 ) );
#585 = DIRECTION( '', ( 1.00000000000000, 0.000000000000000, -0.000000000000000 ) );
#586 = DIRECTION( '', ( -0.000000000000000, 0.000000000000000, -1.00000000000000 ) );
#587 = ORIENTED_EDGE( '', *, *, #800, .T. );
#588 = ORIENTED_EDGE( '', *, *, #801, .F. );
#589 = ORIENTED_EDGE( '', *, *, #802, .T. );
#590 = ORIENTED_EDGE( '', *, *, #803, .T. );
#591 = CARTESIAN_POINT( '', ( 0.0705000000000000, 0.000000000000000, 0.000000000000000 ) );
#592 = DIRECTION( '', ( 1.00000000000000, 0.000000000000000, -0.000000000000000 ) );
#593 = DIRECTION( '', ( -0.000000000000000, 0.000000000000000, -1.00000000000000 ) );
#594 = ORIENTED_EDGE( '', *, *, #804, .T. );
#595 = ORIENTED_EDGE( '', *, *, #805, .T. );
#596 = ORIENTED_EDGE( '', *, *, #806, .T. );
#597 = ORIENTED_EDGE( '', *, *, #807, .T. );
#598 = CARTESIAN_POINT( '', ( 0.0345000000000000, -0.350000000000000, 1.00000000000000 ) );
#599 = DIRECTION( '', ( -1.00000000000000, 0.000000000000000, 0.000000000000000 ) );
#600 = DIRECTION( '', ( 0.000000000000000, 0.000000000000000, 1.00000000000000 ) );
#601 = ORIENTED_EDGE( '', *, *, #808, .F. );
#602 = ORIENTED_EDGE( '', *, *, #809, .F. );
#603 = ORIENTED_EDGE( '', *, *, #810, .F. );
#604 = ORIENTED_EDGE( '', *, *, #806, .F. );
#605 = ORIENTED_EDGE( '', *, *, #811, .F. );
#606 = ORIENTED_EDGE( '', *, *, #812, .F. );
#607 = CARTESIAN_POINT( '', ( 0.0705000000000000, 0.144000000000000, 0.00800000000000000 ) );
#608 = DIRECTION( '', ( 0.000000000000000, 0.000000000000000, -1.00000000000000 ) );
#609 = DIRECTION( '', ( -1.00000000000000, 0.000000000000000, 0.000000000000000 ) );
#610 = ORIENTED_EDGE( '', *, *, #813, .F. );
#611 = ORIENTED_EDGE( '', *, *, #814, .F. );
#612 = ORIENTED_EDGE( '', *, *, #815, .F. );
#613 = ORIENTED_EDGE( '', *, *, #796, .F. );
#614 = ORIENTED_EDGE( '', *, *, #816, .F. );
#615 = ORIENTED_EDGE( '', *, *, #817, .F. );
#616 = CARTESIAN_POINT( '', ( 0.0705000000000000, 0.144000000000000, 0.00800000000000000 ) );
#617 = DIRECTION( '', ( 0.000000000000000, 0.000000000000000, -1.00000000000000 ) );
#618 = DIRECTION( '', ( -1.00000000000000, 0.000000000000000, 0.000000000000000 ) );
#619 = ORIENTED_EDGE( '', *, *, #818, .F. );
#620 = ORIENTED_EDGE( '', *, *, #812, .T. );
#621 = ORIENTED_EDGE( '', *, *, #819, .T. );
#622 = ORIENTED_EDGE( '', *, *, #820, .F. );
#623 = CARTESIAN_POINT( '', ( 0.0705000000000000, 0.000000000000000, 0.00800000000000000 ) );
#624 = DIRECTION( '', ( -0.000000000000000, 1.00000000000000, 0.000000000000000 ) );
#625 = DIRECTION( '', ( 0.000000000000000, -0.000000000000000, 1.00000000000000 ) );
#626 = ORIENTED_EDGE( '', *, *, #821, .F. );
#627 = ORIENTED_EDGE( '', *, *, #820, .T. );
#628 = ORIENTED_EDGE( '', *, *, #822, .F. );
#629 = ORIENTED_EDGE( '', *, *, #804, .F. );
#630 = ORIENTED_EDGE( '', *, *, #823, .F. );
#631 = ORIENTED_EDGE( '', *, *, #824, .F. );
#632 = CARTESIAN_POINT( '', ( 0.0705000000000000, 0.000000000000000, -0.00800000000000000 ) );
#633 = DIRECTION( '', ( 0.000000000000000, 0.000000000000000, 1.00000000000000 ) );
#634 = DIRECTION( '', ( 1.00000000000000, 0.000000000000000, -0.000000000000000 ) );
#635 = ORIENTED_EDGE( '', *, *, #825, .T. );
#636 = ORIENTED_EDGE( '', *, *, #826, .T. );
#637 = ORIENTED_EDGE( '', *, *, #827, .F. );
#638 = ORIENTED_EDGE( '', *, *, #828, .F. );
#639 = CARTESIAN_POINT( '', ( -0.0705000000000000, 0.000000000000000, -0.000000000000000 ) );
#640 = DIRECTION( '', ( 1.00000000000000, 0.000000000000000, -0.000000000000000 ) );
#641 = DIRECTION( '', ( -0.000000000000000, 0.000000000000000, -1.00000000000000 ) );
#642 = ORIENTED_EDGE( '', *, *, #829, .T. );
#643 = ORIENTED_EDGE( '', *, *, #825, .F. );
#644 = ORIENTED_EDGE( '', *, *, #830, .F. );
#645 = ORIENTED_EDGE( '', *, *, #801, .T. );
#646 = CARTESIAN_POINT( '', ( 0.0705000000000000, 0.144000000000000, -0.0240000000000000 ) );
#647 = DIRECTION( '', ( 0.000000000000000, -0.000000000000000, 1.00000000000000 ) );
#648 = DIRECTION( '', ( 1.00000000000000, 0.000000000000000, -0.000000000000000 ) );
#649 = ORIENTED_EDGE( '', *, *, #831, .T. );
#650 = ORIENTED_EDGE( '', *, *, #803, .F. );
#651 = ORIENTED_EDGE( '', *, *, #832, .F. );
#652 = ORIENTED_EDGE( '', *, *, #827, .T. );
#653 = CARTESIAN_POINT( '', ( -0.0705000000000000, 0.144000000000000, 0.0240000000000000 ) );
#654 = DIRECTION( '', ( 0.000000000000000, 0.000000000000000, -1.00000000000000 ) );
#655 = DIRECTION( '', ( -1.00000000000000, 0.000000000000000, 0.000000000000000 ) );
#656 = ORIENTED_EDGE( '', *, *, #810, .T. );
#657 = ORIENTED_EDGE( '', *, *, #833, .T. );
#658 = ORIENTED_EDGE( '', *, *, #823, .T. );
#659 = ORIENTED_EDGE( '', *, *, #807, .F. );
#660 = ORIENTED_EDGE( '', *, *, #816, .T. );
#661 = ORIENTED_EDGE( '', *, *, #799, .T. );
#662 = ORIENTED_EDGE( '', *, *, #834, .T. );
#663 = ORIENTED_EDGE( '', *, *, #835, .F. );
#664 = ORIENTED_EDGE( '', *, *, #826, .F. );
#665 = ORIENTED_EDGE( '', *, *, #829, .F. );
#666 = ORIENTED_EDGE( '', *, *, #800, .F. );
#667 = ORIENTED_EDGE( '', *, *, #831, .F. );
#668 = CARTESIAN_POINT( '', ( 0.000000000000000, 0.139000000000000, -0.000000000000000 ) );
#669 = DIRECTION( '', ( 0.000000000000000, 1.00000000000000, -0.000000000000000 ) );
#670 = DIRECTION( '', ( 0.000000000000000, 0.000000000000000, 1.00000000000000 ) );
#671 = ORIENTED_EDGE( '', *, *, #809, .T. );
#672 = ORIENTED_EDGE( '', *, *, #836, .T. );
#673 = ORIENTED_EDGE( '', *, *, #824, .T. );
#674 = ORIENTED_EDGE( '', *, *, #833, .F. );
#675 = CARTESIAN_POINT( '', ( 0.0655000000000000, 0.139000000000000, 1.00000000000000 ) );
#676 = DIRECTION( '', ( 1.00000000000000, 0.000000000000000, -0.000000000000000 ) );
#677 = DIRECTION( '', ( -0.000000000000000, 0.000000000000000, -1.00000000000000 ) );
#678 = ORIENTED_EDGE( '', *, *, #837, .T. );
#679 = ORIENTED_EDGE( '', *, *, #838, .T. );
#680 = ORIENTED_EDGE( '', *, *, #817, .T. );
#681 = ORIENTED_EDGE( '', *, *, #835, .T. );
#682 = CARTESIAN_POINT( '', ( -0.0655000000000000, -0.350000000000000, 1.00000000000000 ) );
#683 = DIRECTION( '', ( -1.00000000000000, 0.000000000000000, 0.000000000000000 ) );
#684 = DIRECTION( '', ( 0.000000000000000, 0.000000000000000, 1.00000000000000 ) );
#685 = ORIENTED_EDGE( '', *, *, #839, .T. );
#686 = ORIENTED_EDGE( '', *, *, #840, .F. );
#687 = ORIENTED_EDGE( '', *, *, #841, .F. );
#688 = ORIENTED_EDGE( '', *, *, #814, .T. );
#689 = CARTESIAN_POINT( '', ( 0.0705000000000000, 0.000000000000000, 0.00800000000000000 ) );
#690 = DIRECTION( '', ( -0.000000000000000, 1.00000000000000, 0.000000000000000 ) );
#691 = DIRECTION( '', ( 0.000000000000000, -0.000000000000000, 1.00000000000000 ) );
#692 = ORIENTED_EDGE( '', *, *, #813, .T. );
#693 = ORIENTED_EDGE( '', *, *, #838, .F. );
#694 = ORIENTED_EDGE( '', *, *, #842, .T. );
#695 = ORIENTED_EDGE( '', *, *, #839, .F. );
#696 = CARTESIAN_POINT( '', ( -0.0555000000000000, 0.000000000000000, 0.500000000000000 ) );
#697 = DIRECTION( '', ( -0.866025403784439, -0.500000000000000, 0.000000000000000 ) );
#698 = DIRECTION( '', ( 0.500000000000000, -0.866025403784439, 0.000000000000000 ) );
#699 = ORIENTED_EDGE( '', *, *, #808, .T. );
#700 = ORIENTED_EDGE( '', *, *, #818, .T. );
#701 = ORIENTED_EDGE( '', *, *, #821, .T. );
#702 = ORIENTED_EDGE( '', *, *, #836, .F. );
#703 = CARTESIAN_POINT( '', ( 0.0655000000000000, 0.0173205080756888, 0.500000000000000 ) );
#704 = DIRECTION( '', ( 0.866025403784439, -0.500000000000000, 0.000000000000000 ) );
#705 = DIRECTION( '', ( 0.500000000000000, 0.866025403784439, 0.000000000000000 ) );
#706 = ORIENTED_EDGE( '', *, *, #811, .T. );
#707 = ORIENTED_EDGE( '', *, *, #805, .F. );
#708 = ORIENTED_EDGE( '', *, *, #822, .T. );
#709 = ORIENTED_EDGE( '', *, *, #819, .F. );
#710 = CARTESIAN_POINT( '', ( 0.0445000000000000, 0.000000000000000, 0.500000000000000 ) );
#711 = DIRECTION( '', ( -0.866025403784439, -0.500000000000000, 0.000000000000000 ) );
#712 = DIRECTION( '', ( 0.500000000000000, -0.866025403784439, 0.000000000000000 ) );
#713 = ORIENTED_EDGE( '', *, *, #815, .T. );
#714 = ORIENTED_EDGE( '', *, *, #841, .T. );
#715 = ORIENTED_EDGE( '', *, *, #843, .T. );
#716 = ORIENTED_EDGE( '', *, *, #797, .F. );
#717 = CARTESIAN_POINT( '', ( -0.0345000000000000, 0.0173205080756888, 0.500000000000000 ) );
#718 = DIRECTION( '', ( 0.866025403784439, -0.500000000000000, 0.000000000000000 ) );
#719 = DIRECTION( '', ( 0.500000000000000, 0.866025403784439, 0.000000000000000 ) );
#720 = ORIENTED_EDGE( '', *, *, #828, .T. );
#721 = ORIENTED_EDGE( '', *, *, #832, .T. );
#722 = ORIENTED_EDGE( '', *, *, #802, .F. );
#723 = ORIENTED_EDGE( '', *, *, #830, .T. );
#724 = CARTESIAN_POINT( '', ( 0.0705000000000000, 0.144000000000000, -0.00800000000000000 ) );
#725 = DIRECTION( '', ( 0.000000000000000, -1.00000000000000, 0.000000000000000 ) );
#726 = DIRECTION( '', ( 0.000000000000000, 0.000000000000000, -1.00000000000000 ) );
#727 = ORIENTED_EDGE( '', *, *, #842, .F. );
#728 = ORIENTED_EDGE( '', *, *, #837, .F. );
#729 = ORIENTED_EDGE( '', *, *, #834, .F. );
#730 = ORIENTED_EDGE( '', *, *, #798, .F. );
#731 = ORIENTED_EDGE( '', *, *, #843, .F. );
#732 = ORIENTED_EDGE( '', *, *, #840, .T. );
#733 = CARTESIAN_POINT( '', ( 0.0705000000000000, 0.000000000000000, -0.00800000000000000 ) );
#734 = DIRECTION( '', ( 0.000000000000000, 0.000000000000000, 1.00000000000000 ) );
#735 = DIRECTION( '', ( 1.00000000000000, 0.000000000000000, -0.000000000000000 ) );
#736 = EDGE_CURVE( '', #844, #845, #846, .T. );
#737 = EDGE_CURVE( '', #847, #845, #848, .T. );
#738 = EDGE_CURVE( '', #847, #849, #850, .T. );
#739 = EDGE_CURVE( '', #849, #844, #851, .T. );
#740 = EDGE_CURVE( '', #852, #853, #854, .T. );
#741 = EDGE_CURVE( '', #855, #852, #856, .T. );
#742 = EDGE_CURVE( '', #857, #855, #858, .T. );
#743 = EDGE_CURVE( '', #853, #857, #859, .T. );
#744 = EDGE_CURVE( '', #845, #860, #861, .T. );
#745 = EDGE_CURVE( '', #862, #860, #863, .T. );
#746 = EDGE_CURVE( '', #862, #847, #864, .T. );
#747 = EDGE_CURVE( '', #860, #865, #866, .T. );
#748 = EDGE_CURVE( '', #865, #867, #868, .T. );
#749 = EDGE_CURVE( '', #867, #862, #869, .T. );
#750 = EDGE_CURVE( '', #870, #871, #872, .T. );
#751 = EDGE_CURVE( '', #873, #870, #874, .T. );
#752 = EDGE_CURVE( '', #875, #873, #876, .T. );
#753 = EDGE_CURVE( '', #875, #865, #877, .T. );
#754 = EDGE_CURVE( '', #844, #878, #879, .T. );
#755 = EDGE_CURVE( '', #880, #878, #881, .T. );
#756 = EDGE_CURVE( '', #882, #880, #883, .T. );
#757 = EDGE_CURVE( '', #882, #884, #885, .T. );
#758 = EDGE_CURVE( '', #884, #871, #886, .T. );
#759 = EDGE_CURVE( '', #887, #888, #889, .T. );
#760 = EDGE_CURVE( '', #887, #890, #891, .T. );
#761 = EDGE_CURVE( '', #892, #890, #893, .T. );
#762 = EDGE_CURVE( '', #894, #892, #895, .T. );
#763 = EDGE_CURVE( '', #894, #896, #897, .T. );
#764 = EDGE_CURVE( '', #896, #849, #898, .T. );
#765 = EDGE_CURVE( '', #867, #899, #900, .T. );
#766 = EDGE_CURVE( '', #901, #899, #902, .T. );
#767 = EDGE_CURVE( '', #888, #901, #903, .T. );
#768 = EDGE_CURVE( '', #904, #905, #906, .T. );
#769 = EDGE_CURVE( '', #905, #907, #908, .T. );
#770 = EDGE_CURVE( '', #909, #907, #910, .T. );
#771 = EDGE_CURVE( '', #909, #904, #911, .T. );
#772 = EDGE_CURVE( '', #878, #896, #912, .T. );
#773 = EDGE_CURVE( '', #880, #894, #913, .T. );
#774 = EDGE_CURVE( '', #890, #884, #914, .T. );
#775 = EDGE_CURVE( '', #892, #882, #915, .T. );
#776 = EDGE_CURVE( '', #899, #875, #916, .T. );
#777 = EDGE_CURVE( '', #871, #887, #917, .T. );
#778 = EDGE_CURVE( '', #918, #852, #919, .T. );
#779 = EDGE_CURVE( '', #920, #853, #921, .T. );
#780 = EDGE_CURVE( '', #920, #918, #922, .T. );
#781 = EDGE_CURVE( '', #923, #924, #925, .T. );
#782 = EDGE_CURVE( '', #924, #905, #926, .T. );
#783 = EDGE_CURVE( '', #904, #923, #927, .T. );
#784 = EDGE_CURVE( '', #907, #928, #929, .T. );
#785 = EDGE_CURVE( '', #930, #928, #931, .T. );
#786 = EDGE_CURVE( '', #930, #909, #932, .T. );
#787 = EDGE_CURVE( '', #928, #924, #933, .T. );
#788 = EDGE_CURVE( '', #923, #930, #934, .T. );
#789 = EDGE_CURVE( '', #935, #857, #936, .T. );
#790 = EDGE_CURVE( '', #935, #920, #937, .T. );
#791 = EDGE_CURVE( '', #888, #870, #938, .T. );
#792 = EDGE_CURVE( '', #901, #873, #939, .T. );
#793 = EDGE_CURVE( '', #940, #935, #941, .T. );
#794 = EDGE_CURVE( '', #918, #940, #942, .T. );
#795 = EDGE_CURVE( '', #940, #855, #943, .T. );
#796 = EDGE_CURVE( '', #944, #945, #946, .T. );
#797 = EDGE_CURVE( '', #945, #947, #948, .T. );
#798 = EDGE_CURVE( '', #947, #949, #950, .T. );
#799 = EDGE_CURVE( '', #944, #949, #951, .T. );
#800 = EDGE_CURVE( '', #952, #953, #954, .T. );
#801 = EDGE_CURVE( '', #955, #953, #956, .T. );
#802 = EDGE_CURVE( '', #955, #957, #958, .T. );
#803 = EDGE_CURVE( '', #957, #952, #959, .T. );
#804 = EDGE_CURVE( '', #960, #961, #962, .T. );
#805 = EDGE_CURVE( '', #961, #963, #964, .T. );
#806 = EDGE_CURVE( '', #963, #965, #966, .T. );
#807 = EDGE_CURVE( '', #965, #960, #967, .T. );
#808 = EDGE_CURVE( '', #968, #969, #970, .T. );
#809 = EDGE_CURVE( '', #971, #968, #972, .T. );
#810 = EDGE_CURVE( '', #965, #971, #973, .T. );
#811 = EDGE_CURVE( '', #974, #963, #975, .T. );
#812 = EDGE_CURVE( '', #969, #974, #976, .T. );
#813 = EDGE_CURVE( '', #977, #978, #979, .T. );
#814 = EDGE_CURVE( '', #980, #977, #981, .T. );
#815 = EDGE_CURVE( '', #945, #980, #982, .T. );
#816 = EDGE_CURVE( '', #983, #944, #984, .T. );
#817 = EDGE_CURVE( '', #978, #983, #985, .T. );
#818 = EDGE_CURVE( '', #969, #986, #987, .T. );
#819 = EDGE_CURVE( '', #974, #988, #989, .T. );
#820 = EDGE_CURVE( '', #986, #988, #990, .T. );
#821 = EDGE_CURVE( '', #986, #991, #992, .T. );
#822 = EDGE_CURVE( '', #961, #988, #993, .T. );
#823 = EDGE_CURVE( '', #994, #960, #995, .T. );
#824 = EDGE_CURVE( '', #991, #994, #996, .T. );
#825 = EDGE_CURVE( '', #997, #998, #999, .T. );
#826 = EDGE_CURVE( '', #998, #1000, #1001, .T. );
#827 = EDGE_CURVE( '', #1002, #1000, #1003, .T. );
#828 = EDGE_CURVE( '', #997, #1002, #1004, .T. );
#829 = EDGE_CURVE( '', #953, #998, #1005, .T. );
#830 = EDGE_CURVE( '', #955, #997, #1006, .T. );
#831 = EDGE_CURVE( '', #1000, #952, #1007, .T. );
#832 = EDGE_CURVE( '', #1002, #957, #1008, .T. );
#833 = EDGE_CURVE( '', #971, #994, #1009, .T. );
#834 = EDGE_CURVE( '', #949, #1010, #1011, .T. );
#835 = EDGE_CURVE( '', #983, #1010, #1012, .T. );
#836 = EDGE_CURVE( '', #968, #991, #1013, .T. );
#837 = EDGE_CURVE( '', #1010, #1014, #1015, .T. );
#838 = EDGE_CURVE( '', #1014, #978, #1016, .T. );
#839 = EDGE_CURVE( '', #977, #1017, #1018, .T. );
#840 = EDGE_CURVE( '', #1019, #1017, #1020, .T. );
#841 = EDGE_CURVE( '', #980, #1019, #1021, .T. );
#842 = EDGE_CURVE( '', #1014, #1017, #1022, .T. );
#843 = EDGE_CURVE( '', #1019, #947, #1023, .T. );
#844 = VERTEX_POINT( '', #1024 );
#845 = VERTEX_POINT( '', #1025 );
#846 = LINE( '', #1026, #1027 );
#847 = VERTEX_POINT( '', #1028 );
#848 = LINE( '', #1029, #1030 );
#849 = VERTEX_POINT( '', #1031 );
#850 = LINE( '', #1032, #1033 );
#851 = LINE( '', #1034, #1035 );
#852 = VERTEX_POINT( '', #1036 );
#853 = VERTEX_POINT( '', #1037 );
#854 = LINE( '', #1038, #1039 );
#855 = VERTEX_POINT( '', #1040 );
#856 = LINE( '', #1041, #1042 );
#857 = VERTEX_POINT( '', #1043 );
#858 = LINE( '', #1044, #1045 );
#859 = LINE( '', #1046, #1047 );
#860 = VERTEX_POINT( '', #1048 );
#861 = LINE( '', #1049, #1050 );
#862 = VERTEX_POINT( '', #1051 );
#863 = LINE( '', #1052, #1053 );
#864 = LINE( '', #1054, #1055 );
#865 = VERTEX_POINT( '', #1056 );
#866 = LINE( '', #1057, #1058 );
#867 = VERTEX_POINT( '', #1059 );
#868 = LINE( '', #1060, #1061 );
#869 = LINE( '', #1062, #1063 );
#870 = VERTEX_POINT( '', #1064 );
#871 = VERTEX_POINT( '', #1065 );
#872 = LINE( '', #1066, #1067 );
#873 = VERTEX_POINT( '', #1068 );
#874 = LINE( '', #1069, #1070 );
#875 = VERTEX_POINT( '', #1071 );
#876 = LINE( '', #1072, #1073 );
#877 = LINE( '', #1074, #1075 );
#878 = VERTEX_POINT( '', #1076 );
#879 = LINE( '', #1077, #1078 );
#880 = VERTEX_POINT( '', #1079 );
#881 = LINE( '', #1080, #1081 );
#882 = VERTEX_POINT( '', #1082 );
#883 = LINE( '', #1083, #1084 );
#884 = VERTEX_POINT( '', #1085 );
#885 = LINE( '', #1086, #1087 );
#886 = LINE( '', #1088, #1089 );
#887 = VERTEX_POINT( '', #1090 );
#888 = VERTEX_POINT( '', #1091 );
#889 = LINE( '', #1092, #1093 );
#890 = VERTEX_POINT( '', #1094 );
#891 = LINE( '', #1095, #1096 );
#892 = VERTEX_POINT( '', #1097 );
#893 = LINE( '', #1098, #1099 );
#894 = VERTEX_POINT( '', #1100 );
#895 = LINE( '', #1101, #1102 );
#896 = VERTEX_POINT( '', #1103 );
#897 = LINE( '', #1104, #1105 );
#898 = LINE( '', #1106, #1107 );
#899 = VERTEX_POINT( '', #1108 );
#900 = LINE( '', #1109, #1110 );
#901 = VERTEX_POINT( '', #1111 );
#902 = LINE( '', #1112, #1113 );
#903 = LINE( '', #1114, #1115 );
#904 = VERTEX_POINT( '', #1116 );
#905 = VERTEX_POINT( '', #1117 );
#906 = LINE( '', #1118, #1119 );
#907 = VERTEX_POINT( '', #1120 );
#908 = LINE( '', #1121, #1122 );
#909 = VERTEX_POINT( '', #1123 );
#910 = LINE( '', #1124, #1125 );
#911 = LINE( '', #1126, #1127 );
#912 = LINE( '', #1128, #1129 );
#913 = LINE( '', #1130, #1131 );
#914 = LINE( '', #1132, #1133 );
#915 = LINE( '', #1134, #1135 );
#916 = LINE( '', #1136, #1137 );
#917 = LINE( '', #1138, #1139 );
#918 = VERTEX_POINT( '', #1140 );
#919 = LINE( '', #1141, #1142 );
#920 = VERTEX_POINT( '', #1143 );
#921 = LINE( '', #1144, #1145 );
#922 = LINE( '', #1146, #1147 );
#923 = VERTEX_POINT( '', #1148 );
#924 = VERTEX_POINT( '', #1149 );
#925 = LINE( '', #1150, #1151 );
#926 = LINE( '', #1152, #1153 );
#927 = LINE( '', #1154, #1155 );
#928 = VERTEX_POINT( '', #1156 );
#929 = LINE( '', #1157, #1158 );
#930 = VERTEX_POINT( '', #1159 );
#931 = LINE( '', #1160, #1161 );
#932 = LINE( '', #1162, #1163 );
#933 = LINE( '', #1164, #1165 );
#934 = LINE( '', #1166, #1167 );
#935 = VERTEX_POINT( '', #1168 );
#936 = LINE( '', #1169, #1170 );
#937 = LINE( '', #1171, #1172 );
#938 = LINE( '', #1173, #1174 );
#939 = LINE( '', #1175, #1176 );
#940 = VERTEX_POINT( '', #1177 );
#941 = LINE( '', #1178, #1179 );
#942 = LINE( '', #1180, #1181 );
#943 = LINE( '', #1182, #1183 );
#944 = VERTEX_POINT( '', #1184 );
#945 = VERTEX_POINT( '', #1185 );
#946 = LINE( '', #1186, #1187 );
#947 = VERTEX_POINT( '', #1188 );
#948 = LINE( '', #1189, #1190 );
#949 = VERTEX_POINT( '', #1191 );
#950 = LINE( '', #1192, #1193 );
#951 = LINE( '', #1194, #1195 );
#952 = VERTEX_POINT( '', #1196 );
#953 = VERTEX_POINT( '', #1197 );
#954 = LINE( '', #1198, #1199 );
#955 = VERTEX_POINT( '', #1200 );
#956 = LINE( '', #1201, #1202 );
#957 = VERTEX_POINT( '', #1203 );
#958 = LINE( '', #1204, #1205 );
#959 = LINE( '', #1206, #1207 );
#960 = VERTEX_POINT( '', #1208 );
#961 = VERTEX_POINT( '', #1209 );
#962 = LINE( '', #1210, #1211 );
#963 = VERTEX_POINT( '', #1212 );
#964 = LINE( '', #1213, #1214 );
#965 = VERTEX_POINT( '', #1215 );
#966 = LINE( '', #1216, #1217 );
#967 = LINE( '', #1218, #1219 );
#968 = VERTEX_POINT( '', #1220 );
#969 = VERTEX_POINT( '', #1221 );
#970 = LINE( '', #1222, #1223 );
#971 = VERTEX_POINT( '', #1224 );
#972 = LINE( '', #1225, #1226 );
#973 = LINE( '', #1227, #1228 );
#974 = VERTEX_POINT( '', #1229 );
#975 = LINE( '', #1230, #1231 );
#976 = LINE( '', #1232, #1233 );
#977 = VERTEX_POINT( '', #1234 );
#978 = VERTEX_POINT( '', #1235 );
#979 = LINE( '', #1236, #1237 );
#980 = VERTEX_POINT( '', #1238 );
#981 = LINE( '', #1239, #1240 );
#982 = LINE( '', #1241, #1242 );
#983 = VERTEX_POINT( '', #1243 );
#984 = LINE( '', #1244, #1245 );
#985 = LINE( '', #1246, #1247 );
#986 = VERTEX_POINT( '', #1248 );
#987 = LINE( '', #1249, #1250 );
#988 = VERTEX_POINT( '', #1251 );
#989 = LINE( '', #1252, #1253 );
#990 = LINE( '', #1254, #1255 );
#991 = VERTEX_POINT( '', #1256 );
#992 = LINE( '', #1257, #1258 );
#993 = LINE( '', #1259, #1260 );
#994 = VERTEX_POINT( '', #1261 );
#995 = LINE( '', #1262, #1263 );
#996 = LINE( '', #1264, #1265 );
#997 = VERTEX_POINT( '', #1266 );
#998 = VERTEX_POINT( '', #1267 );
#999 = LINE( '', #1268, #1269 );
#1000 = VERTEX_POINT( '', #1270 );
#1001 = LINE( '', #1271, #1272 );
#1002 = VERTEX_POINT( '', #1273 );
#1003 = LINE( '', #1274, #1275 );
#1004 = LINE( '', #1276, #1277 );
#1005 = LINE( '', #1278, #1279 );
#1006 = LINE( '', #1280, #1281 );
#1007 = LINE( '', #1282, #1283 );
#1008 = LINE( '', #1284, #1285 );
#1009 = LINE( '', #1286, #1287 );
#1010 = VERTEX_POINT( '', #1288 );
#1011 = LINE( '', #1289, #1290 );
#1012 = LINE( '', #1291, #1292 );
#1013 = LINE( '', #1293, #1294 );
#1014 = VERTEX_POINT( '', #1295 );
#1015 = LINE( '', #1296, #1297 );
#1016 = LINE( '', #1298, #1299 );
#1017 = VERTEX_POINT( '', #1300 );
#1018 = LINE( '', #1301, #1302 );
#1019 = VERTEX_POINT( '', #1303 );
#1020 = LINE( '', #1304, #1305 );
#1021 = LINE( '', #1306, #1307 );
#1022 = LINE( '', #1308, #1309 );
#1023 = LINE( '', #1310, #1311 );
#1024 = CARTESIAN_POINT( '', ( -0.0900000000000000, 0.000000000000000, -0.0475000000000000 ) );
#1025 = CARTESIAN_POINT( '', ( -0.0900000000000000, 0.0200000000000000, -0.0475000000000000 ) );
#1026 = CARTESIAN_POINT( '', ( -0.0900000000000000, 0.335000000000000, -0.0475000000000000 ) );
#1027 = VECTOR( '', #1312, 39.3700787402000 );
#1028 = CARTESIAN_POINT( '', ( -0.0900000000000000, 0.0200000000000000, 0.0475000000000000 ) );
#1029 = CARTESIAN_POINT( '', ( -0.0900000000000000, 0.0200000000000000, 0.200000000000000 ) );
#1030 = VECTOR( '', #1313, 39.3700787402000 );
#1031 = CARTESIAN_POINT( '', ( -0.0900000000000000, 0.000000000000000, 0.0475000000000000 ) );
#1032 = CARTESIAN_POINT( '', ( -0.0900000000000000, 0.335000000000000, 0.0475000000000000 ) );
#1033 = VECTOR( '', #1314, 39.3700787402000 );
#1034 = CARTESIAN_POINT( '', ( -0.0900000000000000, 0.000000000000000, -0.000000000000000 ) );
#1035 = VECTOR( '', #1315, 39.3700787402000 );
#1036 = CARTESIAN_POINT( '', ( -0.0655000000000000, 0.0200000000000000, 0.0155000000000000 ) );
#1037 = CARTESIAN_POINT( '', ( -0.0655000000000000, 0.0200000000000000, -0.0155000000000000 ) );
#1038 = CARTESIAN_POINT( '', ( -0.0655000000000000, 0.0200000000000000, -0.0155000000000000 ) );
#1039 = VECTOR( '', #1316, 39.3700787402000 );
#1040 = CARTESIAN_POINT( '', ( -0.0345000000000000, 0.0200000000000000, 0.0155000000000000 ) );
#1041 = CARTESIAN_POINT( '', ( -0.0655000000000000, 0.0200000000000000, 0.0155000000000000 ) );
#1042 = VECTOR( '', #1317, 39.3700787402000 );
#1043 = CARTESIAN_POINT( '', ( -0.0345000000000000, 0.0200000000000000, -0.0155000000000000 ) );
#1044 = CARTESIAN_POINT( '', ( -0.0345000000000000, 0.0200000000000000, 0.0155000000000000 ) );
#1045 = VECTOR( '', #1318, 39.3700787402000 );
#1046 = CARTESIAN_POINT( '', ( -0.0345000000000000, 0.0200000000000000, -0.0155000000000000 ) );
#1047 = VECTOR( '', #1319, 39.3700787402000 );
#1048 = CARTESIAN_POINT( '', ( -0.0100000000000000, 0.0200000000000000, -0.0475000000000000 ) );
#1049 = CARTESIAN_POINT( '', ( 0.110000000000000, 0.0200000000000000, -0.0475000000000000 ) );
#1050 = VECTOR( '', #1320, 39.3700787402000 );
#1051 = CARTESIAN_POINT( '', ( -0.0100000000000000, 0.0200000000000000, 0.0475000000000000 ) );
#1052 = CARTESIAN_POINT( '', ( -0.0100000000000000, 0.0200000000000000, 0.200000000000000 ) );
#1053 = VECTOR( '', #1321, 39.3700787402000 );
#1054 = CARTESIAN_POINT( '', ( -0.110000000000000, 0.0200000000000000, 0.0475000000000000 ) );
#1055 = VECTOR( '', #1322, 39.3700787402000 );
#1056 = CARTESIAN_POINT( '', ( -0.0100000000000000, 0.000000000000000, -0.0475000000000000 ) );
#1057 = CARTESIAN_POINT( '', ( -0.0100000000000000, 0.335000000000000, -0.0475000000000000 ) );
#1058 = VECTOR( '', #1323, 39.3700787402000 );
#1059 = CARTESIAN_POINT( '', ( -0.0100000000000000, 0.000000000000000, 0.0475000000000000 ) );
#1060 = CARTESIAN_POINT( '', ( -0.0100000000000000, 0.000000000000000, 0.000000000000000 ) );
#1061 = VECTOR( '', #1324, 39.3700787402000 );
#1062 = CARTESIAN_POINT( '', ( -0.0100000000000000, 0.335000000000000, 0.0475000000000000 ) );
#1063 = VECTOR( '', #1325, 39.3700787402000 );
#1064 = CARTESIAN_POINT( '', ( 0.0900000000000000, 0.0200000000000000, -0.0475000000000000 ) );
#1065 = CARTESIAN_POINT( '', ( 0.0900000000000000, 0.000000000000000, -0.0475000000000000 ) );
#1066 = CARTESIAN_POINT( '', ( 0.0900000000000001, 0.335000000000000, -0.0475000000000000 ) );
#1067 = VECTOR( '', #1326, 39.3700787402000 );
#1068 = CARTESIAN_POINT( '', ( 0.0100000000000000, 0.0200000000000000, -0.0475000000000000 ) );
#1069 = CARTESIAN_POINT( '', ( 0.110000000000000, 0.0200000000000000, -0.0475000000000000 ) );
#1070 = VECTOR( '', #1327, 39.3700787402000 );
#1071 = CARTESIAN_POINT( '', ( 0.0100000000000000, 0.000000000000000, -0.0475000000000000 ) );
#1072 = CARTESIAN_POINT( '', ( 0.0100000000000000, 0.335000000000000, -0.0475000000000000 ) );
#1073 = VECTOR( '', #1328, 39.3700787402000 );
#1074 = CARTESIAN_POINT( '', ( 0.110000000000000, 0.000000000000000, -0.0475000000000000 ) );
#1075 = VECTOR( '', #1329, 39.3700787402000 );
#1076 = CARTESIAN_POINT( '', ( -0.110000000000000, 0.000000000000000, -0.0475000000000000 ) );
#1077 = CARTESIAN_POINT( '', ( 0.110000000000000, 0.000000000000000, -0.0475000000000000 ) );
#1078 = VECTOR( '', #1330, 39.3700787402000 );
#1079 = CARTESIAN_POINT( '', ( -0.110000000000000, 0.335000000000000, -0.0475000000000000 ) );
#1080 = CARTESIAN_POINT( '', ( -0.110000000000000, 0.335000000000000, -0.0475000000000000 ) );
#1081 = VECTOR( '', #1331, 39.3700787402000 );
#1082 = CARTESIAN_POINT( '', ( 0.110000000000000, 0.335000000000000, -0.0475000000000000 ) );
#1083 = CARTESIAN_POINT( '', ( 0.110000000000000, 0.335000000000000, -0.0475000000000000 ) );
#1084 = VECTOR( '', #1332, 39.3700787402000 );
#1085 = CARTESIAN_POINT( '', ( 0.110000000000000, 0.000000000000000, -0.0475000000000000 ) );
#1086 = CARTESIAN_POINT( '', ( 0.110000000000000, 0.335000000000000, -0.0475000000000000 ) );
#1087 = VECTOR( '', #1333, 39.3700787402000 );
#1088 = CARTESIAN_POINT( '', ( 0.110000000000000, 0.000000000000000, -0.0475000000000000 ) );
#1089 = VECTOR( '', #1334, 39.3700787402000 );
#1090 = CARTESIAN_POINT( '', ( 0.0900000000000000, 0.000000000000000, 0.0475000000000000 ) );
#1091 = CARTESIAN_POINT( '', ( 0.0900000000000000, 0.0200000000000000, 0.0475000000000000 ) );
#1092 = CARTESIAN_POINT( '', ( 0.0900000000000001, 0.335000000000000, 0.0475000000000000 ) );
#1093 = VECTOR( '', #1335, 39.3700787402000 );
#1094 = CARTESIAN_POINT( '', ( 0.110000000000000, 0.000000000000000, 0.0475000000000000 ) );
#1095 = CARTESIAN_POINT( '', ( -0.110000000000000, 0.000000000000000, 0.0475000000000000 ) );
#1096 = VECTOR( '', #1336, 39.3700787402000 );
#1097 = CARTESIAN_POINT( '', ( 0.110000000000000, 0.335000000000000, 0.0475000000000000 ) );
#1098 = CARTESIAN_POINT( '', ( 0.110000000000000, 0.335000000000000, 0.0475000000000000 ) );
#1099 = VECTOR( '', #1337, 39.3700787402000 );
#1100 = CARTESIAN_POINT( '', ( -0.110000000000000, 0.335000000000000, 0.0475000000000000 ) );
#1101 = CARTESIAN_POINT( '', ( -0.110000000000000, 0.335000000000000, 0.0475000000000000 ) );
#1102 = VECTOR( '', #1338, 39.3700787402000 );
#1103 = CARTESIAN_POINT( '', ( -0.110000000000000, 0.000000000000000, 0.0475000000000000 ) );
#1104 = CARTESIAN_POINT( '', ( -0.110000000000000, 0.335000000000000, 0.0475000000000000 ) );
#1105 = VECTOR( '', #1339, 39.3700787402000 );
#1106 = CARTESIAN_POINT( '', ( -0.110000000000000, 0.000000000000000, 0.0475000000000000 ) );
#1107 = VECTOR( '', #1340, 39.3700787402000 );
#1108 = CARTESIAN_POINT( '', ( 0.0100000000000000, 0.000000000000000, 0.0475000000000000 ) );
#1109 = CARTESIAN_POINT( '', ( -0.110000000000000, 0.000000000000000, 0.0475000000000000 ) );
#1110 = VECTOR( '', #1341, 39.3700787402000 );
#1111 = CARTESIAN_POINT( '', ( 0.0100000000000000, 0.0200000000000000, 0.0475000000000000 ) );
#1112 = CARTESIAN_POINT( '', ( 0.0100000000000000, 0.335000000000000, 0.0475000000000000 ) );
#1113 = VECTOR( '', #1342, 39.3700787402000 );
#1114 = CARTESIAN_POINT( '', ( -0.110000000000000, 0.0200000000000000, 0.0475000000000000 ) );
#1115 = VECTOR( '', #1343, 39.3700787402000 );
#1116 = CARTESIAN_POINT( '', ( 0.0345000000000000, 0.335000000000000, -0.0155000000000000 ) );
#1117 = CARTESIAN_POINT( '', ( 0.0345000000000000, 0.0200000000000000, -0.0155000000000000 ) );
#1118 = CARTESIAN_POINT( '', ( 0.0345000000000000, 0.335000000000000, -0.0155000000000000 ) );
#1119 = VECTOR( '', #1344, 39.3700787402000 );
#1120 = CARTESIAN_POINT( '', ( 0.0655000000000000, 0.0200000000000000, -0.0155000000000000 ) );
#1121 = CARTESIAN_POINT( '', ( 0.0655000000000000, 0.0200000000000000, -0.0155000000000000 ) );
#1122 = VECTOR( '', #1345, 39.3700787402000 );
#1123 = CARTESIAN_POINT( '', ( 0.0655000000000000, 0.335000000000000, -0.0155000000000000 ) );
#1124 = CARTESIAN_POINT( '', ( 0.0655000000000000, 0.335000000000000, -0.0155000000000000 ) );
#1125 = VECTOR( '', #1346, 39.3700787402000 );
#1126 = CARTESIAN_POINT( '', ( 0.0655000000000000, 0.335000000000000, -0.0155000000000000 ) );
#1127 = VECTOR( '', #1347, 39.3700787402000 );
#1128 = CARTESIAN_POINT( '', ( -0.110000000000000, 0.000000000000000, -0.0475000000000000 ) );
#1129 = VECTOR( '', #1348, 39.3700787402000 );
#1130 = CARTESIAN_POINT( '', ( -0.110000000000000, 0.335000000000000, -0.0475000000000000 ) );
#1131 = VECTOR( '', #1349, 39.3700787402000 );
#1132 = CARTESIAN_POINT( '', ( 0.110000000000000, 0.000000000000000, 0.0475000000000000 ) );
#1133 = VECTOR( '', #1350, 39.3700787402000 );
#1134 = CARTESIAN_POINT( '', ( 0.110000000000000, 0.335000000000000, 0.0475000000000000 ) );
#1135 = VECTOR( '', #1351, 39.3700787402000 );
#1136 = CARTESIAN_POINT( '', ( 0.0100000000000000, 0.000000000000000, 0.000000000000000 ) );
#1137 = VECTOR( '', #1352, 39.3700787402000 );
#1138 = CARTESIAN_POINT( '', ( 0.0900000000000000, 0.000000000000000, -0.000000000000000 ) );
#1139 = VECTOR( '', #1353, 39.3700787402000 );
#1140 = CARTESIAN_POINT( '', ( -0.0655000000000000, 0.335000000000000, 0.0155000000000000 ) );
#1141 = CARTESIAN_POINT( '', ( -0.0655000000000000, 0.335000000000000, 0.0155000000000000 ) );
#1142 = VECTOR( '', #1354, 39.3700787402000 );
#1143 = CARTESIAN_POINT( '', ( -0.0655000000000000, 0.335000000000000, -0.0155000000000000 ) );
#1144 = CARTESIAN_POINT( '', ( -0.0655000000000000, 0.335000000000000, -0.0155000000000000 ) );
#1145 = VECTOR( '', #1355, 39.3700787402000 );
#1146 = CARTESIAN_POINT( '', ( -0.0655000000000000, 0.335000000000000, -0.0155000000000000 ) );
#1147 = VECTOR( '', #1356, 39.3700787402000 );
#1148 = CARTESIAN_POINT( '', ( 0.0345000000000000, 0.335000000000000, 0.0155000000000000 ) );
#1149 = CARTESIAN_POINT( '', ( 0.0345000000000000, 0.0200000000000000, 0.0155000000000000 ) );
#1150 = CARTESIAN_POINT( '', ( 0.0345000000000000, 0.335000000000000, 0.0155000000000000 ) );
#1151 = VECTOR( '', #1357, 39.3700787402000 );
#1152 = CARTESIAN_POINT( '', ( 0.0345000000000000, 0.0200000000000000, -0.0155000000000000 ) );
#1153 = VECTOR( '', #1358, 39.3700787402000 );
#1154 = CARTESIAN_POINT( '', ( 0.0345000000000000, 0.335000000000000, -0.0155000000000000 ) );
#1155 = VECTOR( '', #1359, 39.3700787402000 );
#1156 = CARTESIAN_POINT( '', ( 0.0655000000000000, 0.0200000000000000, 0.0155000000000000 ) );
#1157 = CARTESIAN_POINT( '', ( 0.0655000000000000, 0.0200000000000000, 0.0155000000000000 ) );
#1158 = VECTOR( '', #1360, 39.3700787402000 );
#1159 = CARTESIAN_POINT( '', ( 0.0655000000000000, 0.335000000000000, 0.0155000000000000 ) );
#1160 = CARTESIAN_POINT( '', ( 0.0655000000000000, 0.335000000000000, 0.0155000000000000 ) );
#1161 = VECTOR( '', #1361, 39.3700787402000 );
#1162 = CARTESIAN_POINT( '', ( 0.0655000000000000, 0.335000000000000, 0.0155000000000000 ) );
#1163 = VECTOR( '', #1362, 39.3700787402000 );
#1164 = CARTESIAN_POINT( '', ( 0.0345000000000000, 0.0200000000000000, 0.0155000000000000 ) );
#1165 = VECTOR( '', #1363, 39.3700787402000 );
#1166 = CARTESIAN_POINT( '', ( 0.0345000000000000, 0.335000000000000, 0.0155000000000000 ) );
#1167 = VECTOR( '', #1364, 39.3700787402000 );
#1168 = CARTESIAN_POINT( '', ( -0.0345000000000000, 0.335000000000000, -0.0155000000000000 ) );
#1169 = CARTESIAN_POINT( '', ( -0.0345000000000000, 0.335000000000000, -0.0155000000000000 ) );
#1170 = VECTOR( '', #1365, 39.3700787402000 );
#1171 = CARTESIAN_POINT( '', ( -0.0345000000000000, 0.335000000000000, -0.0155000000000000 ) );
#1172 = VECTOR( '', #1366, 39.3700787402000 );
#1173 = CARTESIAN_POINT( '', ( 0.0900000000000000, 0.0200000000000000, 0.200000000000000 ) );
#1174 = VECTOR( '', #1367, 39.3700787402000 );
#1175 = CARTESIAN_POINT( '', ( 0.0100000000000000, 0.0200000000000000, 0.200000000000000 ) );
#1176 = VECTOR( '', #1368, 39.3700787402000 );
#1177 = CARTESIAN_POINT( '', ( -0.0345000000000000, 0.335000000000000, 0.0155000000000000 ) );
#1178 = CARTESIAN_POINT( '', ( -0.0345000000000000, 0.335000000000000, 0.0155000000000000 ) );
#1179 = VECTOR( '', #1369, 39.3700787402000 );
#1180 = CARTESIAN_POINT( '', ( -0.0655000000000000, 0.335000000000000, 0.0155000000000000 ) );
#1181 = VECTOR( '', #1370, 39.3700787402000 );
#1182 = CARTESIAN_POINT( '', ( -0.0345000000000000, 0.335000000000000, 0.0155000000000000 ) );
#1183 = VECTOR( '', #1371, 39.3700787402000 );
#1184 = CARTESIAN_POINT( '', ( -0.0345000000000000, 0.139000000000000, 0.00800000000000002 ) );
#1185 = CARTESIAN_POINT( '', ( -0.0345000000000000, 0.0173205080756887, 0.00800000000000002 ) );
#1186 = CARTESIAN_POINT( '', ( -0.0345000000000000, 0.144000000000000, 0.00800000000000000 ) );
#1187 = VECTOR( '', #1372, 39.3700787402000 );
#1188 = CARTESIAN_POINT( '', ( -0.0345000000000000, 0.0173205080756888, -0.00800000000000000 ) );
#1189 = CARTESIAN_POINT( '', ( -0.0345000000000000, 0.0173205080756888, 1.00000000000000 ) );
#1190 = VECTOR( '', #1373, 39.3700787402000 );
#1191 = CARTESIAN_POINT( '', ( -0.0345000000000000, 0.139000000000000, -0.00800000000000002 ) );
#1192 = CARTESIAN_POINT( '', ( -0.0345000000000000, 0.000000000000000, -0.00800000000000000 ) );
#1193 = VECTOR( '', #1374, 39.3700787402000 );
#1194 = CARTESIAN_POINT( '', ( -0.0345000000000000, 0.139000000000000, 1.00000000000000 ) );
#1195 = VECTOR( '', #1375, 39.3700787402000 );
#1196 = CARTESIAN_POINT( '', ( 0.0705000000000000, 0.139000000000000, 0.0240000000000000 ) );
#1197 = CARTESIAN_POINT( '', ( 0.0705000000000000, 0.139000000000000, -0.0240000000000000 ) );
#1198 = CARTESIAN_POINT( '', ( 0.0705000000000000, 0.139000000000000, 0.0240000000000000 ) );
#1199 = VECTOR( '', #1376, 39.3700787402000 );
#1200 = CARTESIAN_POINT( '', ( 0.0705000000000000, 0.144000000000000, -0.0240000000000000 ) );
#1201 = CARTESIAN_POINT( '', ( 0.0705000000000000, 0.144000000000000, -0.0240000000000000 ) );
#1202 = VECTOR( '', #1377, 39.3700787402000 );
#1203 = CARTESIAN_POINT( '', ( 0.0705000000000000, 0.144000000000000, 0.0240000000000000 ) );
#1204 = CARTESIAN_POINT( '', ( 0.0705000000000000, 0.144000000000000, -0.00800000000000000 ) );
#1205 = VECTOR( '', #1378, 39.3700787402000 );
#1206 = CARTESIAN_POINT( '', ( 0.0705000000000000, 0.144000000000000, 0.0240000000000000 ) );
#1207 = VECTOR( '', #1379, 39.3700787402000 );
#1208 = CARTESIAN_POINT( '', ( 0.0345000000000000, 0.139000000000000, -0.00800000000000002 ) );
#1209 = CARTESIAN_POINT( '', ( 0.0345000000000000, 0.0173205080756888, -0.00800000000000002 ) );
#1210 = CARTESIAN_POINT( '', ( 0.0345000000000000, 0.000000000000000, -0.00800000000000000 ) );
#1211 = VECTOR( '', #1380, 39.3700787402000 );
#1212 = CARTESIAN_POINT( '', ( 0.0345000000000000, 0.0173205080756887, 0.00800000000000000 ) );
#1213 = CARTESIAN_POINT( '', ( 0.0345000000000000, 0.0173205080756887, 1.00000000000000 ) );
#1214 = VECTOR( '', #1381, 39.3700787402000 );
#1215 = CARTESIAN_POINT( '', ( 0.0345000000000000, 0.139000000000000, 0.00800000000000002 ) );
#1216 = CARTESIAN_POINT( '', ( 0.0345000000000000, 0.144000000000000, 0.00800000000000000 ) );
#1217 = VECTOR( '', #1382, 39.3700787402000 );
#1218 = CARTESIAN_POINT( '', ( 0.0345000000000000, 0.139000000000000, 1.00000000000000 ) );
#1219 = VECTOR( '', #1383, 39.3700787402000 );
#1220 = CARTESIAN_POINT( '', ( 0.0655000000000000, 0.0173205080756888, 0.00800000000000002 ) );
#1221 = CARTESIAN_POINT( '', ( 0.0555000000000000, 0.000000000000000, 0.00800000000000002 ) );
#1222 = CARTESIAN_POINT( '', ( 0.121603829072480, 0.114495190528383, 0.00800000000000000 ) );
#1223 = VECTOR( '', #1384, 39.3700787402000 );
#1224 = CARTESIAN_POINT( '', ( 0.0655000000000000, 0.139000000000000, 0.00800000000000002 ) );
#1225 = CARTESIAN_POINT( '', ( 0.0655000000000000, 0.144000000000000, 0.00800000000000000 ) );
#1226 = VECTOR( '', #1385, 39.3700787402000 );
#1227 = CARTESIAN_POINT( '', ( 0.0705000000000000, 0.139000000000000, 0.00800000000000000 ) );
#1228 = VECTOR( '', #1386, 39.3700787402000 );
#1229 = CARTESIAN_POINT( '', ( 0.0445000000000000, 0.000000000000000, 0.00800000000000002 ) );
#1230 = CARTESIAN_POINT( '', ( -0.0113538290724796, 0.0967416697508023, 0.00800000000000000 ) );
#1231 = VECTOR( '', #1387, 39.3700787402000 );
#1232 = CARTESIAN_POINT( '', ( 0.0705000000000000, 0.000000000000000, 0.00800000000000000 ) );
#1233 = VECTOR( '', #1388, 39.3700787402000 );
#1234 = CARTESIAN_POINT( '', ( -0.0555000000000000, 0.000000000000000, 0.00800000000000002 ) );
#1235 = CARTESIAN_POINT( '', ( -0.0655000000000000, 0.0173205080756887, 0.00800000000000000 ) );
#1236 = CARTESIAN_POINT( '', ( -0.0863538290724796, 0.0534403995615804, 0.00800000000000000 ) );
#1237 = VECTOR( '', #1389, 39.3700787402000 );
#1238 = CARTESIAN_POINT( '', ( -0.0445000000000000, 0.000000000000000, 0.00800000000000002 ) );
#1239 = CARTESIAN_POINT( '', ( 0.0705000000000000, 0.000000000000000, 0.00800000000000000 ) );
#1240 = VECTOR( '', #1390, 39.3700787402000 );
#1241 = CARTESIAN_POINT( '', ( 0.0466038290724796, 0.157796460717605, 0.00800000000000000 ) );
#1242 = VECTOR( '', #1391, 39.3700787402000 );
#1243 = CARTESIAN_POINT( '', ( -0.0655000000000000, 0.139000000000000, 0.00800000000000002 ) );
#1244 = CARTESIAN_POINT( '', ( 0.0705000000000000, 0.139000000000000, 0.00800000000000000 ) );
#1245 = VECTOR( '', #1392, 39.3700787402000 );
#1246 = CARTESIAN_POINT( '', ( -0.0655000000000000, 0.144000000000000, 0.00800000000000000 ) );
#1247 = VECTOR( '', #1393, 39.3700787402000 );
#1248 = CARTESIAN_POINT( '', ( 0.0555000000000000, 0.000000000000000, -0.00800000000000002 ) );
#1249 = CARTESIAN_POINT( '', ( 0.0555000000000000, 0.000000000000000, 0.500000000000000 ) );
#1250 = VECTOR( '', #1394, 39.3700787402000 );
#1251 = CARTESIAN_POINT( '', ( 0.0445000000000000, 0.000000000000000, -0.00800000000000002 ) );
#1252 = CARTESIAN_POINT( '', ( 0.0445000000000000, 0.000000000000000, 0.500000000000000 ) );
#1253 = VECTOR( '', #1395, 39.3700787402000 );
#1254 = CARTESIAN_POINT( '', ( 0.0705000000000000, 0.000000000000000, -0.00800000000000000 ) );
#1255 = VECTOR( '', #1396, 39.3700787402000 );
#1256 = CARTESIAN_POINT( '', ( 0.0655000000000000, 0.0173205080756888, -0.00800000000000000 ) );
#1257 = CARTESIAN_POINT( '', ( 0.0592500000000000, 0.00649519052838329, -0.00800000000000000 ) );
#1258 = VECTOR( '', #1397, 39.3700787402000 );
#1259 = CARTESIAN_POINT( '', ( 0.0510000000000000, -0.0112583302491977, -0.00800000000000000 ) );
#1260 = VECTOR( '', #1398, 39.3700787402000 );
#1261 = CARTESIAN_POINT( '', ( 0.0655000000000000, 0.139000000000000, -0.00800000000000002 ) );
#1262 = CARTESIAN_POINT( '', ( 0.0705000000000000, 0.139000000000000, -0.00800000000000000 ) );
#1263 = VECTOR( '', #1399, 39.3700787402000 );
#1264 = CARTESIAN_POINT( '', ( 0.0655000000000000, 0.000000000000000, -0.00800000000000000 ) );
#1265 = VECTOR( '', #1400, 39.3700787402000 );
#1266 = CARTESIAN_POINT( '', ( -0.0705000000000000, 0.144000000000000, -0.0240000000000000 ) );
#1267 = CARTESIAN_POINT( '', ( -0.0705000000000000, 0.139000000000000, -0.0240000000000000 ) );
#1268 = CARTESIAN_POINT( '', ( -0.0705000000000000, 0.144000000000000, -0.0240000000000000 ) );
#1269 = VECTOR( '', #1401, 39.3700787402000 );
#1270 = CARTESIAN_POINT( '', ( -0.0705000000000000, 0.139000000000000, 0.0240000000000000 ) );
#1271 = CARTESIAN_POINT( '', ( -0.0705000000000000, 0.139000000000000, -0.0240000000000000 ) );
#1272 = VECTOR( '', #1402, 39.3700787402000 );
#1273 = CARTESIAN_POINT( '', ( -0.0705000000000000, 0.144000000000000, 0.0240000000000000 ) );
#1274 = CARTESIAN_POINT( '', ( -0.0705000000000000, 0.144000000000000, 0.0240000000000000 ) );
#1275 = VECTOR( '', #1403, 39.3700787402000 );
#1276 = CARTESIAN_POINT( '', ( -0.0705000000000000, 0.144000000000000, -0.00800000000000000 ) );
#1277 = VECTOR( '', #1404, 39.3700787402000 );
#1278 = CARTESIAN_POINT( '', ( 0.0705000000000000, 0.139000000000000, -0.0240000000000000 ) );
#1279 = VECTOR( '', #1405, 39.3700787402000 );
#1280 = CARTESIAN_POINT( '', ( 0.0705000000000000, 0.144000000000000, -0.0240000000000000 ) );
#1281 = VECTOR( '', #1406, 39.3700787402000 );
#1282 = CARTESIAN_POINT( '', ( -0.0705000000000000, 0.139000000000000, 0.0240000000000000 ) );
#1283 = VECTOR( '', #1407, 39.3700787402000 );
#1284 = CARTESIAN_POINT( '', ( -0.0705000000000000, 0.144000000000000, 0.0240000000000000 ) );
#1285 = VECTOR( '', #1408, 39.3700787402000 );
#1286 = CARTESIAN_POINT( '', ( 0.0655000000000000, 0.139000000000000, 1.00000000000000 ) );
#1287 = VECTOR( '', #1409, 39.3700787402000 );
#1288 = CARTESIAN_POINT( '', ( -0.0655000000000000, 0.139000000000000, -0.00800000000000002 ) );
#1289 = CARTESIAN_POINT( '', ( 0.0705000000000000, 0.139000000000000, -0.00800000000000000 ) );
#1290 = VECTOR( '', #1410, 39.3700787402000 );
#1291 = CARTESIAN_POINT( '', ( -0.0655000000000000, 0.139000000000000, 1.00000000000000 ) );
#1292 = VECTOR( '', #1411, 39.3700787402000 );
#1293 = CARTESIAN_POINT( '', ( 0.0655000000000000, 0.0173205080756888, 1.00000000000000 ) );
#1294 = VECTOR( '', #1412, 39.3700787402000 );
#1295 = CARTESIAN_POINT( '', ( -0.0655000000000000, 0.0173205080756888, -0.00800000000000002 ) );
#1296 = CARTESIAN_POINT( '', ( -0.0655000000000000, 0.000000000000000, -0.00800000000000000 ) );
#1297 = VECTOR( '', #1413, 39.3700787402000 );
#1298 = CARTESIAN_POINT( '', ( -0.0655000000000000, 0.0173205080756887, 1.00000000000000 ) );
#1299 = VECTOR( '', #1414, 39.3700787402000 );
#1300 = CARTESIAN_POINT( '', ( -0.0555000000000000, 0.000000000000000, -0.00800000000000002 ) );
#1301 = CARTESIAN_POINT( '', ( -0.0555000000000000, 0.000000000000000, 0.500000000000000 ) );
#1302 = VECTOR( '', #1415, 39.3700787402000 );
#1303 = CARTESIAN_POINT( '', ( -0.0445000000000000, 0.000000000000000, -0.00800000000000002 ) );
#1304 = CARTESIAN_POINT( '', ( 0.0705000000000000, 0.000000000000000, -0.00800000000000000 ) );
#1305 = VECTOR( '', #1416, 39.3700787402000 );
#1306 = CARTESIAN_POINT( '', ( -0.0445000000000000, 0.000000000000000, 0.500000000000000 ) );
#1307 = VECTOR( '', #1417, 39.3700787402000 );
#1308 = CARTESIAN_POINT( '', ( -0.0240000000000000, -0.0545596004384196, -0.00800000000000000 ) );
#1309 = VECTOR( '', #1418, 39.3700787402000 );
#1310 = CARTESIAN_POINT( '', ( -0.0157500000000000, 0.0497964607176052, -0.00800000000000000 ) );
#1311 = VECTOR( '', #1419, 39.3700787402000 );
#1312 = DIRECTION( '', ( 0.000000000000000, 1.00000000000000, 0.000000000000000 ) );
#1313 = DIRECTION( '', ( -0.000000000000000, -0.000000000000000, -1.00000000000000 ) );
#1314 = DIRECTION( '', ( 0.000000000000000, -1.00000000000000, 0.000000000000000 ) );
#1315 = DIRECTION( '', ( 0.000000000000000, 0.000000000000000, -1.00000000000000 ) );
#1316 = DIRECTION( '', ( 0.000000000000000, 0.000000000000000, -1.00000000000000 ) );
#1317 = DIRECTION( '', ( -1.00000000000000, -5.33564061262551E-17, 0.000000000000000 ) );
#1318 = DIRECTION( '', ( 0.000000000000000, 0.000000000000000, 1.00000000000000 ) );
#1319 = DIRECTION( '', ( 1.00000000000000, 5.33564061262551E-17, 0.000000000000000 ) );
#1320 = DIRECTION( '', ( 1.00000000000000, 5.33564061262551E-17, 0.000000000000000 ) );
#1321 = DIRECTION( '', ( -0.000000000000000, -0.000000000000000, -1.00000000000000 ) );
#1322 = DIRECTION( '', ( -1.00000000000000, -5.33564061262551E-17, 0.000000000000000 ) );
#1323 = DIRECTION( '', ( 0.000000000000000, -1.00000000000000, 0.000000000000000 ) );
#1324 = DIRECTION( '', ( 0.000000000000000, 0.000000000000000, 1.00000000000000 ) );
#1325 = DIRECTION( '', ( 0.000000000000000, 1.00000000000000, 0.000000000000000 ) );
#1326 = DIRECTION( '', ( -1.70740499604016E-16, -1.00000000000000, 0.000000000000000 ) );
#1327 = DIRECTION( '', ( 1.00000000000000, 5.33564061262551E-17, 0.000000000000000 ) );
#1328 = DIRECTION( '', ( 0.000000000000000, 1.00000000000000, 0.000000000000000 ) );
#1329 = DIRECTION( '', ( -1.00000000000000, 0.000000000000000, 0.000000000000000 ) );
#1330 = DIRECTION( '', ( -1.00000000000000, 0.000000000000000, 0.000000000000000 ) );
#1331 = DIRECTION( '', ( -0.000000000000000, -1.00000000000000, -0.000000000000000 ) );
#1332 = DIRECTION( '', ( -1.00000000000000, 0.000000000000000, 0.000000000000000 ) );
#1333 = DIRECTION( '', ( -0.000000000000000, -1.00000000000000, -0.000000000000000 ) );
#1334 = DIRECTION( '', ( -1.00000000000000, 0.000000000000000, 0.000000000000000 ) );
#1335 = DIRECTION( '', ( 1.70740499604016E-16, 1.00000000000000, 0.000000000000000 ) );
#1336 = DIRECTION( '', ( 1.00000000000000, 0.000000000000000, 0.000000000000000 ) );
#1337 = DIRECTION( '', ( -0.000000000000000, -1.00000000000000, -0.000000000000000 ) );
#1338 = DIRECTION( '', ( 1.00000000000000, 0.000000000000000, 0.000000000000000 ) );
#1339 = DIRECTION( '', ( -0.000000000000000, -1.00000000000000, -0.000000000000000 ) );
#1340 = DIRECTION( '', ( 1.00000000000000, 0.000000000000000, 0.000000000000000 ) );
#1341 = DIRECTION( '', ( 1.00000000000000, 0.000000000000000, 0.000000000000000 ) );
#1342 = DIRECTION( '', ( 0.000000000000000, -1.00000000000000, 0.000000000000000 ) );
#1343 = DIRECTION( '', ( -1.00000000000000, -5.33564061262551E-17, 0.000000000000000 ) );
#1344 = DIRECTION( '', ( -0.000000000000000, -1.00000000000000, -0.000000000000000 ) );
#1345 = DIRECTION( '', ( 1.00000000000000, 5.33564061262551E-17, 0.000000000000000 ) );
#1346 = DIRECTION( '', ( -0.000000000000000, -1.00000000000000, -0.000000000000000 ) );
#1347 = DIRECTION( '', ( -1.00000000000000, 0.000000000000000, 0.000000000000000 ) );
#1348 = DIRECTION( '', ( 0.000000000000000, 0.000000000000000, 1.00000000000000 ) );
#1349 = DIRECTION( '', ( 0.000000000000000, 0.000000000000000, 1.00000000000000 ) );
#1350 = DIRECTION( '', ( 0.000000000000000, 0.000000000000000, -1.00000000000000 ) );
#1351 = DIRECTION( '', ( 0.000000000000000, 0.000000000000000, -1.00000000000000 ) );
#1352 = DIRECTION( '', ( 0.000000000000000, 0.000000000000000, -1.00000000000000 ) );
#1353 = DIRECTION( '', ( 0.000000000000000, 0.000000000000000, 1.00000000000000 ) );
#1354 = DIRECTION( '', ( -0.000000000000000, -1.00000000000000, -0.000000000000000 ) );
#1355 = DIRECTION( '', ( -0.000000000000000, -1.00000000000000, -0.000000000000000 ) );
#1356 = DIRECTION( '', ( 0.000000000000000, 0.000000000000000, 1.00000000000000 ) );
#1357 = DIRECTION( '', ( -0.000000000000000, -1.00000000000000, -0.000000000000000 ) );
#1358 = DIRECTION( '', ( 0.000000000000000, 0.000000000000000, -1.00000000000000 ) );
#1359 = DIRECTION( '', ( 0.000000000000000, 0.000000000000000, 1.00000000000000 ) );
#1360 = DIRECTION( '', ( 0.000000000000000, 0.000000000000000, 1.00000000000000 ) );
#1361 = DIRECTION( '', ( -0.000000000000000, -1.00000000000000, -0.000000000000000 ) );
#1362 = DIRECTION( '', ( 0.000000000000000, 0.000000000000000, -1.00000000000000 ) );
#1363 = DIRECTION( '', ( -1.00000000000000, -5.33564061262551E-17, 0.000000000000000 ) );
#1364 = DIRECTION( '', ( 1.00000000000000, 0.000000000000000, 0.000000000000000 ) );
#1365 = DIRECTION( '', ( -0.000000000000000, -1.00000000000000, -0.000000000000000 ) );
#1366 = DIRECTION( '', ( -1.00000000000000, 0.000000000000000, 0.000000000000000 ) );
#1367 = DIRECTION( '', ( -0.000000000000000, -0.000000000000000, -1.00000000000000 ) );
#1368 = DIRECTION( '', ( -0.000000000000000, -0.000000000000000, -1.00000000000000 ) );
#1369 = DIRECTION( '', ( 0.000000000000000, 0.000000000000000, -1.00000000000000 ) );
#1370 = DIRECTION( '', ( 1.00000000000000, 0.000000000000000, 0.000000000000000 ) );
#1371 = DIRECTION( '', ( -0.000000000000000, -1.00000000000000, -0.000000000000000 ) );
#1372 = DIRECTION( '', ( 0.000000000000000, -1.00000000000000, 0.000000000000000 ) );
#1373 = DIRECTION( '', ( 0.000000000000000, 0.000000000000000, -1.00000000000000 ) );
#1374 = DIRECTION( '', ( -0.000000000000000, 1.00000000000000, 0.000000000000000 ) );
#1375 = DIRECTION( '', ( -0.000000000000000, -0.000000000000000, -1.00000000000000 ) );
#1376 = DIRECTION( '', ( 0.000000000000000, 0.000000000000000, -1.00000000000000 ) );
#1377 = DIRECTION( '', ( -0.000000000000000, -1.00000000000000, -0.000000000000000 ) );
#1378 = DIRECTION( '', ( 0.000000000000000, 0.000000000000000, 1.00000000000000 ) );
#1379 = DIRECTION( '', ( -0.000000000000000, -1.00000000000000, -0.000000000000000 ) );
#1380 = DIRECTION( '', ( 0.000000000000000, -1.00000000000000, 0.000000000000000 ) );
#1381 = DIRECTION( '', ( 0.000000000000000, 0.000000000000000, 1.00000000000000 ) );
#1382 = DIRECTION( '', ( 0.000000000000000, 1.00000000000000, 0.000000000000000 ) );
#1383 = DIRECTION( '', ( -0.000000000000000, -0.000000000000000, -1.00000000000000 ) );
#1384 = DIRECTION( '', ( -0.500000000000000, -0.866025403784439, 0.000000000000000 ) );
#1385 = DIRECTION( '', ( 0.000000000000000, -1.00000000000000, 0.000000000000000 ) );
#1386 = DIRECTION( '', ( 1.00000000000000, 0.000000000000000, 0.000000000000000 ) );
#1387 = DIRECTION( '', ( -0.500000000000000, 0.866025403784439, 0.000000000000000 ) );
#1388 = DIRECTION( '', ( -1.00000000000000, -0.000000000000000, -0.000000000000000 ) );
#1389 = DIRECTION( '', ( -0.500000000000000, 0.866025403784439, 0.000000000000000 ) );
#1390 = DIRECTION( '', ( -1.00000000000000, -0.000000000000000, -0.000000000000000 ) );
#1391 = DIRECTION( '', ( -0.500000000000000, -0.866025403784439, 0.000000000000000 ) );
#1392 = DIRECTION( '', ( 1.00000000000000, 0.000000000000000, 0.000000000000000 ) );
#1393 = DIRECTION( '', ( 0.000000000000000, 1.00000000000000, 0.000000000000000 ) );
#1394 = DIRECTION( '', ( -0.000000000000000, -0.000000000000000, -1.00000000000000 ) );
#1395 = DIRECTION( '', ( -0.000000000000000, -0.000000000000000, -1.00000000000000 ) );
#1396 = DIRECTION( '', ( -1.00000000000000, -0.000000000000000, -0.000000000000000 ) );
#1397 = DIRECTION( '', ( 0.500000000000000, 0.866025403784439, 0.000000000000000 ) );
#1398 = DIRECTION( '', ( 0.500000000000000, -0.866025403784439, 0.000000000000000 ) );
#1399 = DIRECTION( '', ( -1.00000000000000, 0.000000000000000, 0.000000000000000 ) );
#1400 = DIRECTION( '', ( -0.000000000000000, 1.00000000000000, 0.000000000000000 ) );
#1401 = DIRECTION( '', ( -0.000000000000000, -1.00000000000000, -0.000000000000000 ) );
#1402 = DIRECTION( '', ( 0.000000000000000, 0.000000000000000, 1.00000000000000 ) );
#1403 = DIRECTION( '', ( -0.000000000000000, -1.00000000000000, -0.000000000000000 ) );
#1404 = DIRECTION( '', ( 0.000000000000000, 0.000000000000000, 1.00000000000000 ) );
#1405 = DIRECTION( '', ( -1.00000000000000, 0.000000000000000, 0.000000000000000 ) );
#1406 = DIRECTION( '', ( -1.00000000000000, 0.000000000000000, 0.000000000000000 ) );
#1407 = DIRECTION( '', ( 1.00000000000000, 0.000000000000000, 0.000000000000000 ) );
#1408 = DIRECTION( '', ( 1.00000000000000, 0.000000000000000, 0.000000000000000 ) );
#1409 = DIRECTION( '', ( -0.000000000000000, -0.000000000000000, -1.00000000000000 ) );
#1410 = DIRECTION( '', ( -1.00000000000000, 0.000000000000000, 0.000000000000000 ) );
#1411 = DIRECTION( '', ( -0.000000000000000, -0.000000000000000, -1.00000000000000 ) );
#1412 = DIRECTION( '', ( 0.000000000000000, 0.000000000000000, -1.00000000000000 ) );
#1413 = DIRECTION( '', ( 0.000000000000000, -1.00000000000000, 0.000000000000000 ) );
#1414 = DIRECTION( '', ( 0.000000000000000, 0.000000000000000, 1.00000000000000 ) );
#1415 = DIRECTION( '', ( -0.000000000000000, -0.000000000000000, -1.00000000000000 ) );
#1416 = DIRECTION( '', ( -1.00000000000000, -0.000000000000000, -0.000000000000000 ) );
#1417 = DIRECTION( '', ( -0.000000000000000, -0.000000000000000, -1.00000000000000 ) );
#1418 = DIRECTION( '', ( 0.500000000000000, -0.866025403784439, 0.000000000000000 ) );
#1419 = DIRECTION( '', ( 0.500000000000000, 0.866025403784439, 0.000000000000000 ) );
ENDSEC;
END-ISO-10303-21;
